%YAML 1.1
%TAG !u! tag:unity3d.com,2011:
--- !u!29 &1
OcclusionCullingSettings:
  m_ObjectHideFlags: 0
  serializedVersion: 2
  m_OcclusionBakeSettings:
    smallestOccluder: 5
    smallestHole: 0.25
    backfaceThreshold: 100
  m_SceneGUID: 00000000000000000000000000000000
  m_OcclusionCullingData: {fileID: 0}
--- !u!104 &2
RenderSettings:
  m_ObjectHideFlags: 0
  serializedVersion: 9
  m_Fog: 0
  m_FogColor: {r: 0.5, g: 0.5, b: 0.5, a: 1}
  m_FogMode: 3
  m_FogDensity: 0.01
  m_LinearFogStart: 0
  m_LinearFogEnd: 300
  m_AmbientSkyColor: {r: 0.212, g: 0.227, b: 0.259, a: 1}
  m_AmbientEquatorColor: {r: 0.114, g: 0.125, b: 0.133, a: 1}
  m_AmbientGroundColor: {r: 0.047, g: 0.043, b: 0.035, a: 1}
  m_AmbientIntensity: 1
  m_AmbientMode: 0
  m_SubtractiveShadowColor: {r: 0.42, g: 0.478, b: 0.627, a: 1}
  m_SkyboxMaterial: {fileID: 10304, guid: 0000000000000000f000000000000000, type: 0}
  m_HaloStrength: 0.5
  m_FlareStrength: 1
  m_FlareFadeSpeed: 3
  m_HaloTexture: {fileID: 0}
  m_SpotCookie: {fileID: 10001, guid: 0000000000000000e000000000000000, type: 0}
  m_DefaultReflectionMode: 0
  m_DefaultReflectionResolution: 128
  m_ReflectionBounces: 1
  m_ReflectionIntensity: 1
  m_CustomReflection: {fileID: 0}
  m_Sun: {fileID: 0}
  m_IndirectSpecularColor: {r: 0, g: 0, b: 0, a: 1}
  m_UseRadianceAmbientProbe: 0
--- !u!157 &3
LightmapSettings:
  m_ObjectHideFlags: 0
  serializedVersion: 11
  m_GIWorkflowMode: 0
  m_GISettings:
    serializedVersion: 2
    m_BounceScale: 1
    m_IndirectOutputScale: 1
    m_AlbedoBoost: 1
    m_TemporalCoherenceThreshold: 1
    m_EnvironmentLightingMode: 0
    m_EnableBakedLightmaps: 1
    m_EnableRealtimeLightmaps: 1
  m_LightmapEditorSettings:
    serializedVersion: 10
    m_Resolution: 2
    m_BakeResolution: 40
    m_AtlasSize: 1024
    m_AO: 0
    m_AOMaxDistance: 1
    m_CompAOExponent: 0
    m_CompAOExponentDirect: 0
    m_Padding: 2
    m_LightmapParameters: {fileID: 0}
    m_LightmapsBakeMode: 1
    m_TextureCompression: 1
    m_FinalGather: 0
    m_FinalGatherFiltering: 1
    m_FinalGatherRayCount: 1024
    m_ReflectionCompression: 2
    m_MixedBakeMode: 1
    m_BakeBackend: 0
    m_PVRSampling: 1
    m_PVRDirectSampleCount: 32
    m_PVRSampleCount: 500
    m_PVRBounces: 2
    m_PVRFilterTypeDirect: 0
    m_PVRFilterTypeIndirect: 0
    m_PVRFilterTypeAO: 0
    m_PVRFilteringMode: 1
    m_PVRCulling: 1
    m_PVRFilteringGaussRadiusDirect: 1
    m_PVRFilteringGaussRadiusIndirect: 5
    m_PVRFilteringGaussRadiusAO: 2
    m_PVRFilteringAtrousPositionSigmaDirect: 0.5
    m_PVRFilteringAtrousPositionSigmaIndirect: 2
    m_PVRFilteringAtrousPositionSigmaAO: 1
    m_ShowResolutionOverlay: 1
  m_LightingDataAsset: {fileID: 0}
  m_UseShadowmask: 0
--- !u!196 &4
NavMeshSettings:
  serializedVersion: 2
  m_ObjectHideFlags: 0
  m_BuildSettings:
    serializedVersion: 2
    agentTypeID: 0
    agentRadius: 0.5
    agentHeight: 2
    agentSlope: 45
    agentClimb: 0.4
    ledgeDropHeight: 0
    maxJumpAcrossDistance: 0
    minRegionArea: 2
    manualCellSize: 0
    cellSize: 0.16666667
    manualTileSize: 0
    tileSize: 256
    accuratePlacement: 0
    debug:
      m_Flags: 0
  m_NavMeshData: {fileID: 0}
--- !u!1001 &4155952
Prefab:
  m_ObjectHideFlags: 0
  serializedVersion: 2
  m_Modification:
    m_TransformParent: {fileID: 1497288040}
    m_Modifications:
    - target: {fileID: 4505491999007264, guid: 869fbdf6b6425694eb465928f60e4646, type: 2}
      propertyPath: m_LocalPosition.x
      value: 0
      objectReference: {fileID: 0}
    - target: {fileID: 4505491999007264, guid: 869fbdf6b6425694eb465928f60e4646, type: 2}
      propertyPath: m_LocalPosition.y
      value: 0
      objectReference: {fileID: 0}
    - target: {fileID: 4505491999007264, guid: 869fbdf6b6425694eb465928f60e4646, type: 2}
      propertyPath: m_LocalPosition.z
      value: 0
      objectReference: {fileID: 0}
    - target: {fileID: 4505491999007264, guid: 869fbdf6b6425694eb465928f60e4646, type: 2}
      propertyPath: m_LocalRotation.x
      value: -0
      objectReference: {fileID: 0}
    - target: {fileID: 4505491999007264, guid: 869fbdf6b6425694eb465928f60e4646, type: 2}
      propertyPath: m_LocalRotation.y
      value: -0
      objectReference: {fileID: 0}
    - target: {fileID: 4505491999007264, guid: 869fbdf6b6425694eb465928f60e4646, type: 2}
      propertyPath: m_LocalRotation.z
      value: -0
      objectReference: {fileID: 0}
    - target: {fileID: 4505491999007264, guid: 869fbdf6b6425694eb465928f60e4646, type: 2}
      propertyPath: m_LocalRotation.w
      value: 1
      objectReference: {fileID: 0}
    - target: {fileID: 4505491999007264, guid: 869fbdf6b6425694eb465928f60e4646, type: 2}
      propertyPath: m_RootOrder
      value: 0
      objectReference: {fileID: 0}
    - target: {fileID: 1823209863842394, guid: 869fbdf6b6425694eb465928f60e4646, type: 2}
      propertyPath: m_IsActive
      value: 0
      objectReference: {fileID: 0}
    m_RemovedComponents: []
  m_ParentPrefab: {fileID: 100100000, guid: 869fbdf6b6425694eb465928f60e4646, type: 2}
  m_RootGameObject: {fileID: 350751763}
  m_IsPrefabParent: 0
--- !u!1 &58060474
GameObject:
  m_ObjectHideFlags: 0
  m_PrefabParentObject: {fileID: 1474601979141834, guid: 869fbdf6b6425694eb465928f60e4646,
    type: 2}
  m_PrefabInternal: {fileID: 4155952}
  serializedVersion: 5
  m_Component:
  - component: {fileID: 58060475}
  - component: {fileID: 58060477}
  - component: {fileID: 58060476}
  m_Layer: 0
  m_Name: Z_Sphere4
  m_TagString: Untagged
  m_Icon: {fileID: 0}
  m_NavMeshLayer: 0
  m_StaticEditorFlags: 0
  m_IsActive: 1
--- !u!4 &58060475
Transform:
  m_ObjectHideFlags: 0
  m_PrefabParentObject: {fileID: 4998108235512000, guid: 869fbdf6b6425694eb465928f60e4646,
    type: 2}
  m_PrefabInternal: {fileID: 4155952}
  m_GameObject: {fileID: 58060474}
  m_LocalRotation: {x: 0.03488977, y: -0, z: -0, w: 0.9993912}
  m_LocalPosition: {x: -0, y: 0, z: 0.0999721}
  m_LocalScale: {x: 0.23608658, y: 0.23608658, z: 0.23608658}
  m_Children: []
  m_Father: {fileID: 1299423420}
  m_RootOrder: 16
  m_LocalEulerAnglesHint: {x: 0, y: 0, z: 0}
--- !u!23 &58060476
MeshRenderer:
  m_ObjectHideFlags: 0
  m_PrefabParentObject: {fileID: 23908913437354668, guid: 869fbdf6b6425694eb465928f60e4646,
    type: 2}
  m_PrefabInternal: {fileID: 4155952}
  m_GameObject: {fileID: 58060474}
  m_Enabled: 1
  m_CastShadows: 1
  m_ReceiveShadows: 1
  m_DynamicOccludee: 1
  m_MotionVectors: 1
  m_LightProbeUsage: 1
  m_ReflectionProbeUsage: 1
  m_RenderingLayerMask: 4294967295
  m_Materials:
  - {fileID: 2100000, guid: dce284ccd24f4ae4ab1bd9256da4a4bd, type: 2}
  m_StaticBatchInfo:
    firstSubMesh: 0
    subMeshCount: 0
  m_StaticBatchRoot: {fileID: 0}
  m_ProbeAnchor: {fileID: 0}
  m_LightProbeVolumeOverride: {fileID: 0}
  m_ScaleInLightmap: 1
  m_PreserveUVs: 0
  m_IgnoreNormalsForChartDetection: 0
  m_ImportantGI: 0
  m_StitchLightmapSeams: 0
  m_SelectedEditorRenderState: 3
  m_MinimumChartSize: 4
  m_AutoUVMaxDistance: 0.5
  m_AutoUVMaxAngle: 89
  m_LightmapParameters: {fileID: 0}
  m_SortingLayerID: 0
  m_SortingLayer: 0
  m_SortingOrder: 0
--- !u!33 &58060477
MeshFilter:
  m_ObjectHideFlags: 0
  m_PrefabParentObject: {fileID: 33750207678983196, guid: 869fbdf6b6425694eb465928f60e4646,
    type: 2}
  m_PrefabInternal: {fileID: 4155952}
  m_GameObject: {fileID: 58060474}
  m_Mesh: {fileID: 4300014, guid: 19e8f0334d30adc46be9a93a73b14e80, type: 3}
--- !u!1 &104813709
GameObject:
  m_ObjectHideFlags: 0
  m_PrefabParentObject: {fileID: 1827559176019472, guid: 869fbdf6b6425694eb465928f60e4646,
    type: 2}
  m_PrefabInternal: {fileID: 4155952}
  serializedVersion: 5
  m_Component:
  - component: {fileID: 104813710}
  - component: {fileID: 104813712}
  - component: {fileID: 104813711}
  m_Layer: 0
  m_Name: Y_Sphere3
  m_TagString: Untagged
  m_Icon: {fileID: 0}
  m_NavMeshLayer: 0
  m_StaticEditorFlags: 0
  m_IsActive: 1
--- !u!4 &104813710
Transform:
  m_ObjectHideFlags: 0
  m_PrefabParentObject: {fileID: 4023584056312988, guid: 869fbdf6b6425694eb465928f60e4646,
    type: 2}
  m_PrefabInternal: {fileID: 4155952}
  m_GameObject: {fileID: 104813709}
  m_LocalRotation: {x: 0, y: -0, z: -0, w: 1}
  m_LocalPosition: {x: -0, y: 0.099972226, z: 0}
  m_LocalScale: {x: 0.23608649, y: 0.23608649, z: 0.23608649}
  m_Children: []
  m_Father: {fileID: 1299423420}
  m_RootOrder: 10
  m_LocalEulerAnglesHint: {x: 0, y: 0, z: 0}
--- !u!23 &104813711
MeshRenderer:
  m_ObjectHideFlags: 0
  m_PrefabParentObject: {fileID: 23988967670726724, guid: 869fbdf6b6425694eb465928f60e4646,
    type: 2}
  m_PrefabInternal: {fileID: 4155952}
  m_GameObject: {fileID: 104813709}
  m_Enabled: 1
  m_CastShadows: 1
  m_ReceiveShadows: 1
  m_DynamicOccludee: 1
  m_MotionVectors: 1
  m_LightProbeUsage: 1
  m_ReflectionProbeUsage: 1
  m_RenderingLayerMask: 4294967295
  m_Materials:
  - {fileID: 2100000, guid: e7a7c9478d52894418873be6d4bfd5fe, type: 2}
  m_StaticBatchInfo:
    firstSubMesh: 0
    subMeshCount: 0
  m_StaticBatchRoot: {fileID: 0}
  m_ProbeAnchor: {fileID: 0}
  m_LightProbeVolumeOverride: {fileID: 0}
  m_ScaleInLightmap: 1
  m_PreserveUVs: 0
  m_IgnoreNormalsForChartDetection: 0
  m_ImportantGI: 0
  m_StitchLightmapSeams: 0
  m_SelectedEditorRenderState: 3
  m_MinimumChartSize: 4
  m_AutoUVMaxDistance: 0.5
  m_AutoUVMaxAngle: 89
  m_LightmapParameters: {fileID: 0}
  m_SortingLayerID: 0
  m_SortingLayer: 0
  m_SortingOrder: 0
--- !u!33 &104813712
MeshFilter:
  m_ObjectHideFlags: 0
  m_PrefabParentObject: {fileID: 33876678226062498, guid: 869fbdf6b6425694eb465928f60e4646,
    type: 2}
  m_PrefabInternal: {fileID: 4155952}
  m_GameObject: {fileID: 104813709}
  m_Mesh: {fileID: 4300020, guid: 19e8f0334d30adc46be9a93a73b14e80, type: 3}
--- !u!1 &175602914
GameObject:
  m_ObjectHideFlags: 0
  m_PrefabParentObject: {fileID: 1156829012945210, guid: 869fbdf6b6425694eb465928f60e4646,
    type: 2}
  m_PrefabInternal: {fileID: 4155952}
  serializedVersion: 5
  m_Component:
  - component: {fileID: 175602915}
  - component: {fileID: 175602917}
  - component: {fileID: 175602916}
  m_Layer: 0
  m_Name: X_Sphere5
  m_TagString: Untagged
  m_Icon: {fileID: 0}
  m_NavMeshLayer: 0
  m_StaticEditorFlags: 0
  m_IsActive: 1
--- !u!4 &175602915
Transform:
  m_ObjectHideFlags: 0
  m_PrefabParentObject: {fileID: 4777128602945556, guid: 869fbdf6b6425694eb465928f60e4646,
    type: 2}
  m_PrefabInternal: {fileID: 4155952}
  m_GameObject: {fileID: 175602914}
  m_LocalRotation: {x: 0, y: -0, z: -0, w: 1}
  m_LocalPosition: {x: -0.2, y: 0, z: 0}
  m_LocalScale: {x: 0.6008989, y: 0.6008989, z: 0.6008989}
  m_Children: []
  m_Father: {fileID: 1515868650}
  m_RootOrder: 0
  m_LocalEulerAnglesHint: {x: 0, y: 0, z: 0}
--- !u!23 &175602916
MeshRenderer:
  m_ObjectHideFlags: 0
  m_PrefabParentObject: {fileID: 23278576216805374, guid: 869fbdf6b6425694eb465928f60e4646,
    type: 2}
  m_PrefabInternal: {fileID: 4155952}
  m_GameObject: {fileID: 175602914}
  m_Enabled: 1
  m_CastShadows: 1
  m_ReceiveShadows: 1
  m_DynamicOccludee: 1
  m_MotionVectors: 1
  m_LightProbeUsage: 1
  m_ReflectionProbeUsage: 1
  m_RenderingLayerMask: 4294967295
  m_Materials:
  - {fileID: 2100000, guid: 5808511577e4da7488e7fc2fcfb7d238, type: 2}
  m_StaticBatchInfo:
    firstSubMesh: 0
    subMeshCount: 0
  m_StaticBatchRoot: {fileID: 0}
  m_ProbeAnchor: {fileID: 0}
  m_LightProbeVolumeOverride: {fileID: 0}
  m_ScaleInLightmap: 1
  m_PreserveUVs: 0
  m_IgnoreNormalsForChartDetection: 0
  m_ImportantGI: 0
  m_StitchLightmapSeams: 0
  m_SelectedEditorRenderState: 3
  m_MinimumChartSize: 4
  m_AutoUVMaxDistance: 0.5
  m_AutoUVMaxAngle: 89
  m_LightmapParameters: {fileID: 0}
  m_SortingLayerID: 0
  m_SortingLayer: 0
  m_SortingOrder: 0
--- !u!33 &175602917
MeshFilter:
  m_ObjectHideFlags: 0
  m_PrefabParentObject: {fileID: 33048246766958768, guid: 869fbdf6b6425694eb465928f60e4646,
    type: 2}
  m_PrefabInternal: {fileID: 4155952}
  m_GameObject: {fileID: 175602914}
  m_Mesh: {fileID: 4300032, guid: 19e8f0334d30adc46be9a93a73b14e80, type: 3}
--- !u!1 &197466694
GameObject:
  m_ObjectHideFlags: 0
  m_PrefabParentObject: {fileID: 1188952466546094, guid: dcbf1437f0912414da095cb522586e5c,
    type: 2}
  m_PrefabInternal: {fileID: 0}
  serializedVersion: 5
  m_Component:
  - component: {fileID: 197466695}
  - component: {fileID: 197466698}
  - component: {fileID: 197466697}
  - component: {fileID: 197466696}
  - component: {fileID: 197466699}
  m_Layer: 5
  m_Name: Controller Status Text
  m_TagString: Untagged
  m_Icon: {fileID: 0}
  m_NavMeshLayer: 0
  m_StaticEditorFlags: 0
  m_IsActive: 1
--- !u!224 &197466695
RectTransform:
  m_ObjectHideFlags: 0
  m_PrefabParentObject: {fileID: 224348708273826548, guid: dcbf1437f0912414da095cb522586e5c,
    type: 2}
  m_PrefabInternal: {fileID: 0}
  m_GameObject: {fileID: 197466694}
  m_LocalRotation: {x: -0, y: -0, z: -0, w: 1}
  m_LocalPosition: {x: 0, y: 0, z: 0}
  m_LocalScale: {x: 0.0015, y: 0.0015, z: 0}
  m_Children: []
  m_Father: {fileID: 1827102959}
  m_RootOrder: 1
  m_LocalEulerAnglesHint: {x: 0, y: 0, z: 0}
  m_AnchorMin: {x: 0.5, y: 0.5}
  m_AnchorMax: {x: 0.5, y: 0.5}
  m_AnchoredPosition: {x: 0.34, y: 0.15}
  m_SizeDelta: {x: 160, y: 30}
  m_Pivot: {x: 0.5, y: 0.5}
--- !u!114 &197466696
MonoBehaviour:
  m_ObjectHideFlags: 0
  m_PrefabParentObject: {fileID: 114685654226293700, guid: dcbf1437f0912414da095cb522586e5c,
    type: 2}
  m_PrefabInternal: {fileID: 0}
  m_GameObject: {fileID: 197466694}
  m_Enabled: 1
  m_EditorHideFlags: 0
  m_Script: {fileID: 11500000, guid: 8a660d62a17dddf4abe4d32b17999b86, type: 3}
  m_Name: 
  m_EditorClassIdentifier: 
--- !u!114 &197466697
MonoBehaviour:
  m_ObjectHideFlags: 0
  m_PrefabParentObject: {fileID: 114483151709330512, guid: dcbf1437f0912414da095cb522586e5c,
    type: 2}
  m_PrefabInternal: {fileID: 0}
  m_GameObject: {fileID: 197466694}
  m_Enabled: 1
  m_EditorHideFlags: 0
  m_Script: {fileID: 708705254, guid: f70555f144d8491a825f0804e09c671c, type: 3}
  m_Name: 
  m_EditorClassIdentifier: 
  m_Material: {fileID: 0}
  m_Color: {r: 1, g: 1, b: 1, a: 1}
  m_RaycastTarget: 1
  m_OnCullStateChanged:
    m_PersistentCalls:
      m_Calls: []
    m_TypeName: UnityEngine.UI.MaskableGraphic+CullStateChangedEvent, UnityEngine.UI,
      Version=1.0.0.0, Culture=neutral, PublicKeyToken=null
  m_FontData:
    m_Font: {fileID: 12800000, guid: adcae46baa3736748a69f9f489676bd7, type: 3}
    m_FontSize: 12
    m_FontStyle: 1
    m_BestFit: 0
    m_MinSize: 0
    m_MaxSize: 40
    m_Alignment: 4
    m_AlignByGeometry: 0
    m_RichText: 1
    m_HorizontalOverflow: 1
    m_VerticalOverflow: 1
    m_LineSpacing: 1
  m_Text: Controller Status
--- !u!222 &197466698
CanvasRenderer:
  m_ObjectHideFlags: 0
  m_PrefabParentObject: {fileID: 222226166980275844, guid: dcbf1437f0912414da095cb522586e5c,
    type: 2}
  m_PrefabInternal: {fileID: 0}
  m_GameObject: {fileID: 197466694}
--- !u!114 &197466699
MonoBehaviour:
  m_ObjectHideFlags: 0
  m_PrefabParentObject: {fileID: 0}
  m_PrefabInternal: {fileID: 0}
  m_GameObject: {fileID: 197466694}
  m_Enabled: 1
  m_EditorHideFlags: 0
  m_Script: {fileID: 11500000, guid: 97d97f3bfb1874341bd827a81a6bb64f, type: 3}
  m_Name: 
  m_EditorClassIdentifier: 
  _devicesAllowed: 7
--- !u!1 &213152297
GameObject:
  m_ObjectHideFlags: 0
  m_PrefabParentObject: {fileID: 1249342948792682, guid: 869fbdf6b6425694eb465928f60e4646,
    type: 2}
  m_PrefabInternal: {fileID: 4155952}
  serializedVersion: 5
  m_Component:
  - component: {fileID: 213152298}
  - component: {fileID: 213152300}
  - component: {fileID: 213152299}
  m_Layer: 0
  m_Name: Center_Geo
  m_TagString: Untagged
  m_Icon: {fileID: 0}
  m_NavMeshLayer: 0
  m_StaticEditorFlags: 0
  m_IsActive: 1
--- !u!4 &213152298
Transform:
  m_ObjectHideFlags: 0
  m_PrefabParentObject: {fileID: 4264117991189860, guid: 869fbdf6b6425694eb465928f60e4646,
    type: 2}
  m_PrefabInternal: {fileID: 4155952}
  m_GameObject: {fileID: 213152297}
  m_LocalRotation: {x: 0, y: -0, z: -0, w: 1}
  m_LocalPosition: {x: 0.0017078161, y: -0.0017078161, z: -0.0017078161}
  m_LocalScale: {x: 0.5, y: 0.5, z: 0.5}
  m_Children: []
  m_Father: {fileID: 1299423420}
  m_RootOrder: 0
  m_LocalEulerAnglesHint: {x: 0, y: 0, z: 0}
--- !u!23 &213152299
MeshRenderer:
  m_ObjectHideFlags: 0
  m_PrefabParentObject: {fileID: 23907833097467018, guid: 869fbdf6b6425694eb465928f60e4646,
    type: 2}
  m_PrefabInternal: {fileID: 4155952}
  m_GameObject: {fileID: 213152297}
  m_Enabled: 1
  m_CastShadows: 1
  m_ReceiveShadows: 1
  m_DynamicOccludee: 1
  m_MotionVectors: 1
  m_LightProbeUsage: 1
  m_ReflectionProbeUsage: 1
  m_RenderingLayerMask: 4294967295
  m_Materials:
  - {fileID: 2100000, guid: 7e6116c9523bb4e49a5fd6566c5df19c, type: 2}
  - {fileID: 2100000, guid: 5808511577e4da7488e7fc2fcfb7d238, type: 2}
  - {fileID: 2100000, guid: e7a7c9478d52894418873be6d4bfd5fe, type: 2}
  - {fileID: 2100000, guid: dce284ccd24f4ae4ab1bd9256da4a4bd, type: 2}
  m_StaticBatchInfo:
    firstSubMesh: 0
    subMeshCount: 0
  m_StaticBatchRoot: {fileID: 0}
  m_ProbeAnchor: {fileID: 0}
  m_LightProbeVolumeOverride: {fileID: 0}
  m_ScaleInLightmap: 1
  m_PreserveUVs: 0
  m_IgnoreNormalsForChartDetection: 0
  m_ImportantGI: 0
  m_StitchLightmapSeams: 0
  m_SelectedEditorRenderState: 3
  m_MinimumChartSize: 4
  m_AutoUVMaxDistance: 0.5
  m_AutoUVMaxAngle: 89
  m_LightmapParameters: {fileID: 0}
  m_SortingLayerID: 0
  m_SortingLayer: 0
  m_SortingOrder: 0
--- !u!33 &213152300
MeshFilter:
  m_ObjectHideFlags: 0
  m_PrefabParentObject: {fileID: 33621531040207008, guid: 869fbdf6b6425694eb465928f60e4646,
    type: 2}
  m_PrefabInternal: {fileID: 4155952}
  m_GameObject: {fileID: 213152297}
  m_Mesh: {fileID: 4300000, guid: 19e8f0334d30adc46be9a93a73b14e80, type: 3}
--- !u!1 &234904008
GameObject:
  m_ObjectHideFlags: 0
  m_PrefabParentObject: {fileID: 0}
  m_PrefabInternal: {fileID: 0}
  serializedVersion: 5
  m_Component:
  - component: {fileID: 234904009}
  m_Layer: 0
  m_Name: '[CONTENT]'
  m_TagString: Untagged
  m_Icon: {fileID: 0}
  m_NavMeshLayer: 0
  m_StaticEditorFlags: 0
  m_IsActive: 1
--- !u!4 &234904009
Transform:
  m_ObjectHideFlags: 0
  m_PrefabParentObject: {fileID: 0}
  m_PrefabInternal: {fileID: 0}
  m_GameObject: {fileID: 234904008}
  m_LocalRotation: {x: -0, y: -0, z: -0, w: 1}
  m_LocalPosition: {x: 0, y: 0, z: 0}
  m_LocalScale: {x: 1, y: 1, z: 1}
  m_Children:
  - {fileID: 1497288040}
  - {fileID: 1113660736}
  - {fileID: 1838162548}
  - {fileID: 1562575244}
  m_Father: {fileID: 0}
  m_RootOrder: 0
  m_LocalEulerAnglesHint: {x: 0, y: 0, z: 0}
--- !u!1 &304120252
GameObject:
  m_ObjectHideFlags: 0
  m_PrefabParentObject: {fileID: 1597101503048170, guid: 869fbdf6b6425694eb465928f60e4646,
    type: 2}
  m_PrefabInternal: {fileID: 4155952}
  serializedVersion: 5
  m_Component:
  - component: {fileID: 304120253}
  - component: {fileID: 304120255}
  - component: {fileID: 304120254}
  m_Layer: 0
  m_Name: Z_Sphere3
  m_TagString: Untagged
  m_Icon: {fileID: 0}
  m_NavMeshLayer: 0
  m_StaticEditorFlags: 0
  m_IsActive: 1
--- !u!4 &304120253
Transform:
  m_ObjectHideFlags: 0
  m_PrefabParentObject: {fileID: 4608053226203204, guid: 869fbdf6b6425694eb465928f60e4646,
    type: 2}
  m_PrefabInternal: {fileID: 4155952}
  m_GameObject: {fileID: 304120252}
  m_LocalRotation: {x: 0, y: -0, z: -0, w: 1}
  m_LocalPosition: {x: -0, y: 0, z: 0.099999845}
  m_LocalScale: {x: 0.23608647, y: 0.23608647, z: 0.23608647}
  m_Children: []
  m_Father: {fileID: 1299423420}
  m_RootOrder: 15
  m_LocalEulerAnglesHint: {x: 0, y: 0, z: 0}
--- !u!23 &304120254
MeshRenderer:
  m_ObjectHideFlags: 0
  m_PrefabParentObject: {fileID: 23193788609244826, guid: 869fbdf6b6425694eb465928f60e4646,
    type: 2}
  m_PrefabInternal: {fileID: 4155952}
  m_GameObject: {fileID: 304120252}
  m_Enabled: 1
  m_CastShadows: 1
  m_ReceiveShadows: 1
  m_DynamicOccludee: 1
  m_MotionVectors: 1
  m_LightProbeUsage: 1
  m_ReflectionProbeUsage: 1
  m_RenderingLayerMask: 4294967295
  m_Materials:
  - {fileID: 2100000, guid: dce284ccd24f4ae4ab1bd9256da4a4bd, type: 2}
  m_StaticBatchInfo:
    firstSubMesh: 0
    subMeshCount: 0
  m_StaticBatchRoot: {fileID: 0}
  m_ProbeAnchor: {fileID: 0}
  m_LightProbeVolumeOverride: {fileID: 0}
  m_ScaleInLightmap: 1
  m_PreserveUVs: 0
  m_IgnoreNormalsForChartDetection: 0
  m_ImportantGI: 0
  m_StitchLightmapSeams: 0
  m_SelectedEditorRenderState: 3
  m_MinimumChartSize: 4
  m_AutoUVMaxDistance: 0.5
  m_AutoUVMaxAngle: 89
  m_LightmapParameters: {fileID: 0}
  m_SortingLayerID: 0
  m_SortingLayer: 0
  m_SortingOrder: 0
--- !u!33 &304120255
MeshFilter:
  m_ObjectHideFlags: 0
  m_PrefabParentObject: {fileID: 33799924674725690, guid: 869fbdf6b6425694eb465928f60e4646,
    type: 2}
  m_PrefabInternal: {fileID: 4155952}
  m_GameObject: {fileID: 304120252}
  m_Mesh: {fileID: 4300012, guid: 19e8f0334d30adc46be9a93a73b14e80, type: 3}
--- !u!1 &350751763
GameObject:
  m_ObjectHideFlags: 0
  m_PrefabParentObject: {fileID: 1941861441659632, guid: 869fbdf6b6425694eb465928f60e4646,
    type: 2}
  m_PrefabInternal: {fileID: 4155952}
  serializedVersion: 5
  m_Component:
  - component: {fileID: 350751764}
  m_Layer: 0
  m_Name: WireframeCube
  m_TagString: Untagged
  m_Icon: {fileID: 0}
  m_NavMeshLayer: 0
  m_StaticEditorFlags: 0
  m_IsActive: 1
--- !u!4 &350751764
Transform:
  m_ObjectHideFlags: 0
  m_PrefabParentObject: {fileID: 4505491999007264, guid: 869fbdf6b6425694eb465928f60e4646,
    type: 2}
  m_PrefabInternal: {fileID: 4155952}
  m_GameObject: {fileID: 350751763}
  m_LocalRotation: {x: -0, y: -0, z: -0, w: 1}
  m_LocalPosition: {x: 0, y: 0, z: 0}
  m_LocalScale: {x: 1, y: 1, z: 1}
  m_Children:
  - {fileID: 1299423420}
  - {fileID: 1099849714}
  m_Father: {fileID: 1497288040}
  m_RootOrder: 0
  m_LocalEulerAnglesHint: {x: 0, y: 0, z: 0}
--- !u!1 &602688833
GameObject:
  m_ObjectHideFlags: 0
  m_PrefabParentObject: {fileID: 1905753450208884, guid: 869fbdf6b6425694eb465928f60e4646,
    type: 2}
  m_PrefabInternal: {fileID: 4155952}
  serializedVersion: 5
  m_Component:
  - component: {fileID: 602688834}
  - component: {fileID: 602688836}
  - component: {fileID: 602688835}
  m_Layer: 0
  m_Name: Y_Sphere5
  m_TagString: Untagged
  m_Icon: {fileID: 0}
  m_NavMeshLayer: 0
  m_StaticEditorFlags: 0
  m_IsActive: 1
--- !u!4 &602688834
Transform:
  m_ObjectHideFlags: 0
  m_PrefabParentObject: {fileID: 4866572996288782, guid: 869fbdf6b6425694eb465928f60e4646,
    type: 2}
  m_PrefabInternal: {fileID: 4155952}
  m_GameObject: {fileID: 602688833}
  m_LocalRotation: {x: 0, y: -0, z: -0, w: 1}
  m_LocalPosition: {x: -0, y: 0.2, z: 0}
  m_LocalScale: {x: 0.6008989, y: 0.6008989, z: 0.6008989}
  m_Children: []
  m_Father: {fileID: 1515868650}
  m_RootOrder: 1
  m_LocalEulerAnglesHint: {x: 0, y: 0, z: 0}
--- !u!23 &602688835
MeshRenderer:
  m_ObjectHideFlags: 0
  m_PrefabParentObject: {fileID: 23740424948553878, guid: 869fbdf6b6425694eb465928f60e4646,
    type: 2}
  m_PrefabInternal: {fileID: 4155952}
  m_GameObject: {fileID: 602688833}
  m_Enabled: 1
  m_CastShadows: 1
  m_ReceiveShadows: 1
  m_DynamicOccludee: 1
  m_MotionVectors: 1
  m_LightProbeUsage: 1
  m_ReflectionProbeUsage: 1
  m_RenderingLayerMask: 4294967295
  m_Materials:
  - {fileID: 2100000, guid: e7a7c9478d52894418873be6d4bfd5fe, type: 2}
  m_StaticBatchInfo:
    firstSubMesh: 0
    subMeshCount: 0
  m_StaticBatchRoot: {fileID: 0}
  m_ProbeAnchor: {fileID: 0}
  m_LightProbeVolumeOverride: {fileID: 0}
  m_ScaleInLightmap: 1
  m_PreserveUVs: 0
  m_IgnoreNormalsForChartDetection: 0
  m_ImportantGI: 0
  m_StitchLightmapSeams: 0
  m_SelectedEditorRenderState: 3
  m_MinimumChartSize: 4
  m_AutoUVMaxDistance: 0.5
  m_AutoUVMaxAngle: 89
  m_LightmapParameters: {fileID: 0}
  m_SortingLayerID: 0
  m_SortingLayer: 0
  m_SortingOrder: 0
--- !u!33 &602688836
MeshFilter:
  m_ObjectHideFlags: 0
  m_PrefabParentObject: {fileID: 33126744199241054, guid: 869fbdf6b6425694eb465928f60e4646,
    type: 2}
  m_PrefabInternal: {fileID: 4155952}
  m_GameObject: {fileID: 602688833}
  m_Mesh: {fileID: 4300036, guid: 19e8f0334d30adc46be9a93a73b14e80, type: 3}
--- !u!1 &731896044
GameObject:
  m_ObjectHideFlags: 0
  m_PrefabParentObject: {fileID: 1526149520722844, guid: 869fbdf6b6425694eb465928f60e4646,
    type: 2}
  m_PrefabInternal: {fileID: 4155952}
  serializedVersion: 5
  m_Component:
  - component: {fileID: 731896045}
  - component: {fileID: 731896047}
  - component: {fileID: 731896046}
  m_Layer: 0
  m_Name: Y_Sphere
  m_TagString: Untagged
  m_Icon: {fileID: 0}
  m_NavMeshLayer: 0
  m_StaticEditorFlags: 0
  m_IsActive: 1
--- !u!4 &731896045
Transform:
  m_ObjectHideFlags: 0
  m_PrefabParentObject: {fileID: 4363921489665254, guid: 869fbdf6b6425694eb465928f60e4646,
    type: 2}
  m_PrefabInternal: {fileID: 4155952}
  m_GameObject: {fileID: 731896044}
  m_LocalRotation: {x: 0, y: -0, z: -0, w: 1}
  m_LocalPosition: {x: -0, y: 0.100000076, z: 0}
  m_LocalScale: {x: 0.2360864, y: 0.2360864, z: 0.2360864}
  m_Children: []
  m_Father: {fileID: 1299423420}
  m_RootOrder: 7
  m_LocalEulerAnglesHint: {x: 0, y: 0, z: 0}
--- !u!23 &731896046
MeshRenderer:
  m_ObjectHideFlags: 0
  m_PrefabParentObject: {fileID: 23063352263707148, guid: 869fbdf6b6425694eb465928f60e4646,
    type: 2}
  m_PrefabInternal: {fileID: 4155952}
  m_GameObject: {fileID: 731896044}
  m_Enabled: 1
  m_CastShadows: 1
  m_ReceiveShadows: 1
  m_DynamicOccludee: 1
  m_MotionVectors: 1
  m_LightProbeUsage: 1
  m_ReflectionProbeUsage: 1
  m_RenderingLayerMask: 4294967295
  m_Materials:
  - {fileID: 2100000, guid: e7a7c9478d52894418873be6d4bfd5fe, type: 2}
  m_StaticBatchInfo:
    firstSubMesh: 0
    subMeshCount: 0
  m_StaticBatchRoot: {fileID: 0}
  m_ProbeAnchor: {fileID: 0}
  m_LightProbeVolumeOverride: {fileID: 0}
  m_ScaleInLightmap: 1
  m_PreserveUVs: 0
  m_IgnoreNormalsForChartDetection: 0
  m_ImportantGI: 0
  m_StitchLightmapSeams: 0
  m_SelectedEditorRenderState: 3
  m_MinimumChartSize: 4
  m_AutoUVMaxDistance: 0.5
  m_AutoUVMaxAngle: 89
  m_LightmapParameters: {fileID: 0}
  m_SortingLayerID: 0
  m_SortingLayer: 0
  m_SortingOrder: 0
--- !u!33 &731896047
MeshFilter:
  m_ObjectHideFlags: 0
  m_PrefabParentObject: {fileID: 33217953749928338, guid: 869fbdf6b6425694eb465928f60e4646,
    type: 2}
  m_PrefabInternal: {fileID: 4155952}
  m_GameObject: {fileID: 731896044}
  m_Mesh: {fileID: 4300004, guid: 19e8f0334d30adc46be9a93a73b14e80, type: 3}
--- !u!1 &756972218
GameObject:
  m_ObjectHideFlags: 0
  m_PrefabParentObject: {fileID: 0}
  m_PrefabInternal: {fileID: 0}
  serializedVersion: 5
  m_Component:
  - component: {fileID: 756972219}
  - component: {fileID: 756972221}
  - component: {fileID: 756972220}
  m_Layer: 5
  m_Name: 'Text: Render Mode'
  m_TagString: Untagged
  m_Icon: {fileID: 0}
  m_NavMeshLayer: 0
  m_StaticEditorFlags: 0
  m_IsActive: 1
--- !u!224 &756972219
RectTransform:
  m_ObjectHideFlags: 0
  m_PrefabParentObject: {fileID: 0}
  m_PrefabInternal: {fileID: 0}
  m_GameObject: {fileID: 756972218}
  m_LocalRotation: {x: -0, y: -0, z: -0, w: 1}
  m_LocalPosition: {x: 0, y: 0, z: 0}
  m_LocalScale: {x: 0.0015, y: 0.0015, z: 0}
  m_Children: []
  m_Father: {fileID: 1827102959}
  m_RootOrder: 5
  m_LocalEulerAnglesHint: {x: 0, y: 0, z: 0}
  m_AnchorMin: {x: 0.5, y: 0.5}
  m_AnchorMax: {x: 0.5, y: 0.5}
  m_AnchoredPosition: {x: -0.32, y: -0.02}
  m_SizeDelta: {x: 200, y: 20}
  m_Pivot: {x: 0.5, y: 0.5}
--- !u!114 &756972220
MonoBehaviour:
  m_ObjectHideFlags: 0
  m_PrefabParentObject: {fileID: 0}
  m_PrefabInternal: {fileID: 0}
  m_GameObject: {fileID: 756972218}
  m_Enabled: 1
  m_EditorHideFlags: 0
  m_Script: {fileID: 708705254, guid: f70555f144d8491a825f0804e09c671c, type: 3}
  m_Name: 
  m_EditorClassIdentifier: 
  m_Material: {fileID: 0}
  m_Color: {r: 1, g: 1, b: 1, a: 1}
  m_RaycastTarget: 1
  m_OnCullStateChanged:
    m_PersistentCalls:
      m_Calls: []
    m_TypeName: UnityEngine.UI.MaskableGraphic+CullStateChangedEvent, UnityEngine.UI,
      Version=1.0.0.0, Culture=neutral, PublicKeyToken=null
  m_FontData:
    m_Font: {fileID: 12800000, guid: adcae46baa3736748a69f9f489676bd7, type: 3}
    m_FontSize: 12
    m_FontStyle: 0
    m_BestFit: 0
    m_MinSize: 1
    m_MaxSize: 40
    m_Alignment: 0
    m_AlignByGeometry: 0
    m_RichText: 1
    m_HorizontalOverflow: 0
    m_VerticalOverflow: 0
    m_LineSpacing: 1
  m_Text: 'Render Mode:'
--- !u!222 &756972221
CanvasRenderer:
  m_ObjectHideFlags: 0
  m_PrefabParentObject: {fileID: 0}
  m_PrefabInternal: {fileID: 0}
  m_GameObject: {fileID: 756972218}
--- !u!1 &813484187
GameObject:
  m_ObjectHideFlags: 0
  m_PrefabParentObject: {fileID: 1794641137124938, guid: 869fbdf6b6425694eb465928f60e4646,
    type: 2}
  m_PrefabInternal: {fileID: 4155952}
  serializedVersion: 5
  m_Component:
  - component: {fileID: 813484188}
  - component: {fileID: 813484190}
  - component: {fileID: 813484189}
  m_Layer: 0
  m_Name: Z_Sphere5
  m_TagString: Untagged
  m_Icon: {fileID: 0}
  m_NavMeshLayer: 0
  m_StaticEditorFlags: 0
  m_IsActive: 1
--- !u!4 &813484188
Transform:
  m_ObjectHideFlags: 0
  m_PrefabParentObject: {fileID: 4098903734025842, guid: 869fbdf6b6425694eb465928f60e4646,
    type: 2}
  m_PrefabInternal: {fileID: 4155952}
  m_GameObject: {fileID: 813484187}
  m_LocalRotation: {x: 0, y: -0, z: -0, w: 1}
  m_LocalPosition: {x: -0, y: 0, z: 0.2}
  m_LocalScale: {x: 0.6008989, y: 0.6008989, z: 0.6008989}
  m_Children: []
  m_Father: {fileID: 1515868650}
  m_RootOrder: 2
  m_LocalEulerAnglesHint: {x: 0, y: 0, z: 0}
--- !u!23 &813484189
MeshRenderer:
  m_ObjectHideFlags: 0
  m_PrefabParentObject: {fileID: 23052053015474014, guid: 869fbdf6b6425694eb465928f60e4646,
    type: 2}
  m_PrefabInternal: {fileID: 4155952}
  m_GameObject: {fileID: 813484187}
  m_Enabled: 1
  m_CastShadows: 1
  m_ReceiveShadows: 1
  m_DynamicOccludee: 1
  m_MotionVectors: 1
  m_LightProbeUsage: 1
  m_ReflectionProbeUsage: 1
  m_RenderingLayerMask: 4294967295
  m_Materials:
  - {fileID: 2100000, guid: dce284ccd24f4ae4ab1bd9256da4a4bd, type: 2}
  m_StaticBatchInfo:
    firstSubMesh: 0
    subMeshCount: 0
  m_StaticBatchRoot: {fileID: 0}
  m_ProbeAnchor: {fileID: 0}
  m_LightProbeVolumeOverride: {fileID: 0}
  m_ScaleInLightmap: 1
  m_PreserveUVs: 0
  m_IgnoreNormalsForChartDetection: 0
  m_ImportantGI: 0
  m_StitchLightmapSeams: 0
  m_SelectedEditorRenderState: 3
  m_MinimumChartSize: 4
  m_AutoUVMaxDistance: 0.5
  m_AutoUVMaxAngle: 89
  m_LightmapParameters: {fileID: 0}
  m_SortingLayerID: 0
  m_SortingLayer: 0
  m_SortingOrder: 0
--- !u!33 &813484190
MeshFilter:
  m_ObjectHideFlags: 0
  m_PrefabParentObject: {fileID: 33097693030575252, guid: 869fbdf6b6425694eb465928f60e4646,
    type: 2}
  m_PrefabInternal: {fileID: 4155952}
  m_GameObject: {fileID: 813484187}
  m_Mesh: {fileID: 4300034, guid: 19e8f0334d30adc46be9a93a73b14e80, type: 3}
--- !u!1 &817472446
GameObject:
  m_ObjectHideFlags: 0
  m_PrefabParentObject: {fileID: 0}
  m_PrefabInternal: {fileID: 0}
  serializedVersion: 5
  m_Component:
  - component: {fileID: 817472447}
  - component: {fileID: 817472449}
  - component: {fileID: 817472448}
  m_Layer: 5
  m_Name: 'Text: Bounded Extents'
  m_TagString: Untagged
  m_Icon: {fileID: 0}
  m_NavMeshLayer: 0
  m_StaticEditorFlags: 0
  m_IsActive: 1
--- !u!224 &817472447
RectTransform:
  m_ObjectHideFlags: 0
  m_PrefabParentObject: {fileID: 0}
  m_PrefabInternal: {fileID: 0}
  m_GameObject: {fileID: 817472446}
  m_LocalRotation: {x: -0, y: -0, z: -0, w: 1}
  m_LocalPosition: {x: 0, y: 0, z: 0}
  m_LocalScale: {x: 0.0015, y: 0.0015, z: 0}
  m_Children: []
  m_Father: {fileID: 1827102959}
  m_RootOrder: 4
  m_LocalEulerAnglesHint: {x: 0, y: 0, z: 0}
  m_AnchorMin: {x: 0.5, y: 0.5}
  m_AnchorMax: {x: 0.5, y: 0.5}
  m_AnchoredPosition: {x: -0.32, y: 0.014000003}
  m_SizeDelta: {x: 200, y: 20}
  m_Pivot: {x: 0.5, y: 0.5}
--- !u!114 &817472448
MonoBehaviour:
  m_ObjectHideFlags: 0
  m_PrefabParentObject: {fileID: 0}
  m_PrefabInternal: {fileID: 0}
  m_GameObject: {fileID: 817472446}
  m_Enabled: 1
  m_EditorHideFlags: 0
  m_Script: {fileID: 708705254, guid: f70555f144d8491a825f0804e09c671c, type: 3}
  m_Name: 
  m_EditorClassIdentifier: 
  m_Material: {fileID: 0}
  m_Color: {r: 1, g: 1, b: 1, a: 1}
  m_RaycastTarget: 1
  m_OnCullStateChanged:
    m_PersistentCalls:
      m_Calls: []
    m_TypeName: UnityEngine.UI.MaskableGraphic+CullStateChangedEvent, UnityEngine.UI,
      Version=1.0.0.0, Culture=neutral, PublicKeyToken=null
  m_FontData:
    m_Font: {fileID: 12800000, guid: adcae46baa3736748a69f9f489676bd7, type: 3}
    m_FontSize: 12
    m_FontStyle: 0
    m_BestFit: 0
    m_MinSize: 1
    m_MaxSize: 40
    m_Alignment: 0
    m_AlignByGeometry: 0
    m_RichText: 1
    m_HorizontalOverflow: 0
    m_VerticalOverflow: 0
    m_LineSpacing: 1
  m_Text: 'Bounded Extents:'
--- !u!222 &817472449
CanvasRenderer:
  m_ObjectHideFlags: 0
  m_PrefabParentObject: {fileID: 0}
  m_PrefabInternal: {fileID: 0}
  m_GameObject: {fileID: 817472446}
--- !u!1 &903453893
GameObject:
  m_ObjectHideFlags: 0
  m_PrefabParentObject: {fileID: 1677894138234198, guid: dcbf1437f0912414da095cb522586e5c,
    type: 2}
  m_PrefabInternal: {fileID: 0}
  serializedVersion: 5
  m_Component:
  - component: {fileID: 903453894}
  - component: {fileID: 903453896}
  - component: {fileID: 903453895}
  - component: {fileID: 903453897}
  m_Layer: 0
  m_Name: Controller Status Icon
  m_TagString: Untagged
  m_Icon: {fileID: 0}
  m_NavMeshLayer: 0
  m_StaticEditorFlags: 0
  m_IsActive: 1
--- !u!4 &903453894
Transform:
  m_ObjectHideFlags: 0
  m_PrefabParentObject: {fileID: 4286108671830606, guid: dcbf1437f0912414da095cb522586e5c,
    type: 2}
  m_PrefabInternal: {fileID: 0}
  m_GameObject: {fileID: 903453893}
  m_LocalRotation: {x: -0, y: -0, z: -0, w: 1}
  m_LocalPosition: {x: 0.35, y: 0.2, z: 0}
  m_LocalScale: {x: 0.07, y: 0.07, z: 0}
  m_Children: []
  m_Father: {fileID: 1827102959}
  m_RootOrder: 0
  m_LocalEulerAnglesHint: {x: 0, y: 0, z: 0}
--- !u!114 &903453895
MonoBehaviour:
  m_ObjectHideFlags: 0
  m_PrefabParentObject: {fileID: 114114647102724438, guid: dcbf1437f0912414da095cb522586e5c,
    type: 2}
  m_PrefabInternal: {fileID: 0}
  m_GameObject: {fileID: 903453893}
  m_Enabled: 1
  m_EditorHideFlags: 0
  m_Script: {fileID: 11500000, guid: 351ff1e5a912983408cacef6e18aadca, type: 3}
  m_Name: 
  m_EditorClassIdentifier: 
  _controllerIcon: {fileID: 21300000, guid: 8a0754f2766f2fd4bab30b039e7369ea, type: 3}
  _mobileAppIcon: {fileID: 21300000, guid: a08aff0c7b507c04da4da4d952ea2f1f, type: 3}
--- !u!212 &903453896
SpriteRenderer:
  m_ObjectHideFlags: 0
  m_PrefabParentObject: {fileID: 212715530784980092, guid: dcbf1437f0912414da095cb522586e5c,
    type: 2}
  m_PrefabInternal: {fileID: 0}
  m_GameObject: {fileID: 903453893}
  m_Enabled: 1
  m_CastShadows: 0
  m_ReceiveShadows: 0
  m_DynamicOccludee: 1
  m_MotionVectors: 1
  m_LightProbeUsage: 1
  m_ReflectionProbeUsage: 1
  m_RenderingLayerMask: 4294967295
  m_Materials:
  - {fileID: 10754, guid: 0000000000000000f000000000000000, type: 0}
  m_StaticBatchInfo:
    firstSubMesh: 0
    subMeshCount: 0
  m_StaticBatchRoot: {fileID: 0}
  m_ProbeAnchor: {fileID: 0}
  m_LightProbeVolumeOverride: {fileID: 0}
  m_ScaleInLightmap: 1
  m_PreserveUVs: 0
  m_IgnoreNormalsForChartDetection: 0
  m_ImportantGI: 0
  m_StitchLightmapSeams: 0
  m_SelectedEditorRenderState: 0
  m_MinimumChartSize: 4
  m_AutoUVMaxDistance: 0.5
  m_AutoUVMaxAngle: 89
  m_LightmapParameters: {fileID: 0}
  m_SortingLayerID: 0
  m_SortingLayer: 0
  m_SortingOrder: 0
  m_Sprite: {fileID: 21300000, guid: 8a0754f2766f2fd4bab30b039e7369ea, type: 3}
  m_Color: {r: 1, g: 1, b: 1, a: 1}
  m_FlipX: 0
  m_FlipY: 0
  m_DrawMode: 0
  m_Size: {x: 1, y: 1}
  m_AdaptiveModeThreshold: 0.5
  m_SpriteTileMode: 0
  m_WasSpriteAssigned: 1
  m_MaskInteraction: 0
--- !u!114 &903453897
MonoBehaviour:
  m_ObjectHideFlags: 0
  m_PrefabParentObject: {fileID: 0}
  m_PrefabInternal: {fileID: 0}
  m_GameObject: {fileID: 903453893}
  m_Enabled: 1
  m_EditorHideFlags: 0
  m_Script: {fileID: 11500000, guid: 97d97f3bfb1874341bd827a81a6bb64f, type: 3}
  m_Name: 
  m_EditorClassIdentifier: 
  _devicesAllowed: 7
--- !u!1 &1035776742
GameObject:
  m_ObjectHideFlags: 0
  m_PrefabParentObject: {fileID: 0}
  m_PrefabInternal: {fileID: 0}
  serializedVersion: 5
  m_Component:
  - component: {fileID: 1035776743}
  - component: {fileID: 1035776745}
  - component: {fileID: 1035776744}
  m_Layer: 5
  m_Name: 'Text: Number Of Planes'
  m_TagString: Untagged
  m_Icon: {fileID: 0}
  m_NavMeshLayer: 0
  m_StaticEditorFlags: 0
  m_IsActive: 1
--- !u!224 &1035776743
RectTransform:
  m_ObjectHideFlags: 0
  m_PrefabParentObject: {fileID: 0}
  m_PrefabInternal: {fileID: 0}
  m_GameObject: {fileID: 1035776742}
  m_LocalRotation: {x: -0, y: -0, z: -0, w: 1}
  m_LocalPosition: {x: 0, y: 0, z: 0}
  m_LocalScale: {x: 0.0015, y: 0.0015, z: 0}
  m_Children: []
  m_Father: {fileID: 1827102959}
  m_RootOrder: 3
  m_LocalEulerAnglesHint: {x: 0, y: 0, z: 0}
  m_AnchorMin: {x: 0.5, y: 0.5}
  m_AnchorMax: {x: 0.5, y: 0.5}
  m_AnchoredPosition: {x: -0.32, y: 0.049999997}
  m_SizeDelta: {x: 200, y: 20}
  m_Pivot: {x: 0.5, y: 0.5}
--- !u!114 &1035776744
MonoBehaviour:
  m_ObjectHideFlags: 0
  m_PrefabParentObject: {fileID: 0}
  m_PrefabInternal: {fileID: 0}
  m_GameObject: {fileID: 1035776742}
  m_Enabled: 1
  m_EditorHideFlags: 0
  m_Script: {fileID: 708705254, guid: f70555f144d8491a825f0804e09c671c, type: 3}
  m_Name: 
  m_EditorClassIdentifier: 
  m_Material: {fileID: 0}
  m_Color: {r: 1, g: 1, b: 1, a: 1}
  m_RaycastTarget: 1
  m_OnCullStateChanged:
    m_PersistentCalls:
      m_Calls: []
    m_TypeName: UnityEngine.UI.MaskableGraphic+CullStateChangedEvent, UnityEngine.UI,
      Version=1.0.0.0, Culture=neutral, PublicKeyToken=null
  m_FontData:
    m_Font: {fileID: 12800000, guid: adcae46baa3736748a69f9f489676bd7, type: 3}
    m_FontSize: 12
    m_FontStyle: 0
    m_BestFit: 0
    m_MinSize: 1
    m_MaxSize: 40
    m_Alignment: 0
    m_AlignByGeometry: 0
    m_RichText: 1
    m_HorizontalOverflow: 0
    m_VerticalOverflow: 0
    m_LineSpacing: 1
  m_Text: 'Number of Planes:'
--- !u!222 &1035776745
CanvasRenderer:
  m_ObjectHideFlags: 0
  m_PrefabParentObject: {fileID: 0}
  m_PrefabInternal: {fileID: 0}
  m_GameObject: {fileID: 1035776742}
--- !u!1 &1053141205
GameObject:
  m_ObjectHideFlags: 0
  m_PrefabParentObject: {fileID: 1841117003673398, guid: 869fbdf6b6425694eb465928f60e4646,
    type: 2}
  m_PrefabInternal: {fileID: 4155952}
  serializedVersion: 5
  m_Component:
  - component: {fileID: 1053141206}
  - component: {fileID: 1053141208}
  - component: {fileID: 1053141207}
  m_Layer: 0
  m_Name: X_Sphere2
  m_TagString: Untagged
  m_Icon: {fileID: 0}
  m_NavMeshLayer: 0
  m_StaticEditorFlags: 0
  m_IsActive: 1
--- !u!4 &1053141206
Transform:
  m_ObjectHideFlags: 0
  m_PrefabParentObject: {fileID: 4850049145096894, guid: 869fbdf6b6425694eb465928f60e4646,
    type: 2}
  m_PrefabInternal: {fileID: 4155952}
  m_GameObject: {fileID: 1053141205}
  m_LocalRotation: {x: 0, y: -0, z: -0, w: 1}
  m_LocalPosition: {x: -0.099999994, y: 0, z: 0}
  m_LocalScale: {x: 0.23608643, y: 0.23608643, z: 0.23608643}
  m_Children: []
  m_Father: {fileID: 1299423420}
  m_RootOrder: 4
  m_LocalEulerAnglesHint: {x: 0, y: 0, z: 0}
--- !u!23 &1053141207
MeshRenderer:
  m_ObjectHideFlags: 0
  m_PrefabParentObject: {fileID: 23886992038343736, guid: 869fbdf6b6425694eb465928f60e4646,
    type: 2}
  m_PrefabInternal: {fileID: 4155952}
  m_GameObject: {fileID: 1053141205}
  m_Enabled: 1
  m_CastShadows: 1
  m_ReceiveShadows: 1
  m_DynamicOccludee: 1
  m_MotionVectors: 1
  m_LightProbeUsage: 1
  m_ReflectionProbeUsage: 1
  m_RenderingLayerMask: 4294967295
  m_Materials:
  - {fileID: 2100000, guid: 5808511577e4da7488e7fc2fcfb7d238, type: 2}
  m_StaticBatchInfo:
    firstSubMesh: 0
    subMeshCount: 0
  m_StaticBatchRoot: {fileID: 0}
  m_ProbeAnchor: {fileID: 0}
  m_LightProbeVolumeOverride: {fileID: 0}
  m_ScaleInLightmap: 1
  m_PreserveUVs: 0
  m_IgnoreNormalsForChartDetection: 0
  m_ImportantGI: 0
  m_StitchLightmapSeams: 0
  m_SelectedEditorRenderState: 3
  m_MinimumChartSize: 4
  m_AutoUVMaxDistance: 0.5
  m_AutoUVMaxAngle: 89
  m_LightmapParameters: {fileID: 0}
  m_SortingLayerID: 0
  m_SortingLayer: 0
  m_SortingOrder: 0
--- !u!33 &1053141208
MeshFilter:
  m_ObjectHideFlags: 0
  m_PrefabParentObject: {fileID: 33097626580486250, guid: 869fbdf6b6425694eb465928f60e4646,
    type: 2}
  m_PrefabInternal: {fileID: 4155952}
  m_GameObject: {fileID: 1053141205}
  m_Mesh: {fileID: 4300026, guid: 19e8f0334d30adc46be9a93a73b14e80, type: 3}
--- !u!1 &1099849713
GameObject:
  m_ObjectHideFlags: 0
  m_PrefabParentObject: {fileID: 1299895313420512, guid: 869fbdf6b6425694eb465928f60e4646,
    type: 2}
  m_PrefabInternal: {fileID: 4155952}
  serializedVersion: 5
  m_Component:
  - component: {fileID: 1099849714}
  - component: {fileID: 1099849716}
  - component: {fileID: 1099849715}
  m_Layer: 0
  m_Name: Tracking_Cube_1x1
  m_TagString: Untagged
  m_Icon: {fileID: 0}
  m_NavMeshLayer: 0
  m_StaticEditorFlags: 0
  m_IsActive: 1
--- !u!4 &1099849714
Transform:
  m_ObjectHideFlags: 0
  m_PrefabParentObject: {fileID: 4824258906751496, guid: 869fbdf6b6425694eb465928f60e4646,
    type: 2}
  m_PrefabInternal: {fileID: 4155952}
  m_GameObject: {fileID: 1099849713}
  m_LocalRotation: {x: 0, y: -0, z: -0, w: 1}
  m_LocalPosition: {x: -0, y: 0, z: 0}
  m_LocalScale: {x: 4, y: 4, z: 4}
  m_Children: []
  m_Father: {fileID: 350751764}
  m_RootOrder: 1
  m_LocalEulerAnglesHint: {x: 0, y: 0, z: 0}
--- !u!23 &1099849715
MeshRenderer:
  m_ObjectHideFlags: 0
  m_PrefabParentObject: {fileID: 23429063824036622, guid: 869fbdf6b6425694eb465928f60e4646,
    type: 2}
  m_PrefabInternal: {fileID: 4155952}
  m_GameObject: {fileID: 1099849713}
  m_Enabled: 1
  m_CastShadows: 1
  m_ReceiveShadows: 1
  m_DynamicOccludee: 1
  m_MotionVectors: 1
  m_LightProbeUsage: 1
  m_ReflectionProbeUsage: 1
  m_RenderingLayerMask: 4294967295
  m_Materials:
  - {fileID: 2100000, guid: a88eadc2615b9db43b1cefb82e212c43, type: 2}
  m_StaticBatchInfo:
    firstSubMesh: 0
    subMeshCount: 0
  m_StaticBatchRoot: {fileID: 0}
  m_ProbeAnchor: {fileID: 0}
  m_LightProbeVolumeOverride: {fileID: 0}
  m_ScaleInLightmap: 1
  m_PreserveUVs: 0
  m_IgnoreNormalsForChartDetection: 0
  m_ImportantGI: 0
  m_StitchLightmapSeams: 0
  m_SelectedEditorRenderState: 3
  m_MinimumChartSize: 4
  m_AutoUVMaxDistance: 0.5
  m_AutoUVMaxAngle: 89
  m_LightmapParameters: {fileID: 0}
  m_SortingLayerID: 0
  m_SortingLayer: 0
  m_SortingOrder: 0
--- !u!33 &1099849716
MeshFilter:
  m_ObjectHideFlags: 0
  m_PrefabParentObject: {fileID: 33331267469008794, guid: 869fbdf6b6425694eb465928f60e4646,
    type: 2}
  m_PrefabInternal: {fileID: 4155952}
  m_GameObject: {fileID: 1099849713}
  m_Mesh: {fileID: 4300000, guid: cfdbe6d363b0ec24fb443e8c3f5753dd, type: 3}
--- !u!1 &1103379789
GameObject:
  m_ObjectHideFlags: 0
  m_PrefabParentObject: {fileID: 1038560811736808, guid: 869fbdf6b6425694eb465928f60e4646,
    type: 2}
  m_PrefabInternal: {fileID: 4155952}
  serializedVersion: 5
  m_Component:
  - component: {fileID: 1103379790}
  - component: {fileID: 1103379792}
  - component: {fileID: 1103379791}
  m_Layer: 0
  m_Name: Y_Sphere4
  m_TagString: Untagged
  m_Icon: {fileID: 0}
  m_NavMeshLayer: 0
  m_StaticEditorFlags: 0
  m_IsActive: 1
--- !u!4 &1103379790
Transform:
  m_ObjectHideFlags: 0
  m_PrefabParentObject: {fileID: 4791974261130822, guid: 869fbdf6b6425694eb465928f60e4646,
    type: 2}
  m_PrefabInternal: {fileID: 4155952}
  m_GameObject: {fileID: 1103379789}
  m_LocalRotation: {x: 0, y: -0, z: -0, w: 1}
  m_LocalPosition: {x: -0, y: 0.099999845, z: 0}
  m_LocalScale: {x: 0.23608647, y: 0.23608647, z: 0.23608647}
  m_Children: []
  m_Father: {fileID: 1299423420}
  m_RootOrder: 11
  m_LocalEulerAnglesHint: {x: 0, y: 0, z: 0}
--- !u!23 &1103379791
MeshRenderer:
  m_ObjectHideFlags: 0
  m_PrefabParentObject: {fileID: 23235108623844192, guid: 869fbdf6b6425694eb465928f60e4646,
    type: 2}
  m_PrefabInternal: {fileID: 4155952}
  m_GameObject: {fileID: 1103379789}
  m_Enabled: 1
  m_CastShadows: 1
  m_ReceiveShadows: 1
  m_DynamicOccludee: 1
  m_MotionVectors: 1
  m_LightProbeUsage: 1
  m_ReflectionProbeUsage: 1
  m_RenderingLayerMask: 4294967295
  m_Materials:
  - {fileID: 2100000, guid: e7a7c9478d52894418873be6d4bfd5fe, type: 2}
  m_StaticBatchInfo:
    firstSubMesh: 0
    subMeshCount: 0
  m_StaticBatchRoot: {fileID: 0}
  m_ProbeAnchor: {fileID: 0}
  m_LightProbeVolumeOverride: {fileID: 0}
  m_ScaleInLightmap: 1
  m_PreserveUVs: 0
  m_IgnoreNormalsForChartDetection: 0
  m_ImportantGI: 0
  m_StitchLightmapSeams: 0
  m_SelectedEditorRenderState: 3
  m_MinimumChartSize: 4
  m_AutoUVMaxDistance: 0.5
  m_AutoUVMaxAngle: 89
  m_LightmapParameters: {fileID: 0}
  m_SortingLayerID: 0
  m_SortingLayer: 0
  m_SortingOrder: 0
--- !u!33 &1103379792
MeshFilter:
  m_ObjectHideFlags: 0
  m_PrefabParentObject: {fileID: 33676172809354002, guid: 869fbdf6b6425694eb465928f60e4646,
    type: 2}
  m_PrefabInternal: {fileID: 4155952}
  m_GameObject: {fileID: 1103379789}
  m_Mesh: {fileID: 4300022, guid: 19e8f0334d30adc46be9a93a73b14e80, type: 3}
--- !u!1 &1113660735
GameObject:
  m_ObjectHideFlags: 0
  m_PrefabParentObject: {fileID: 0}
  m_PrefabInternal: {fileID: 0}
  serializedVersion: 5
  m_Component:
  - component: {fileID: 1113660736}
  - component: {fileID: 1113660737}
  m_Layer: 0
  m_Name: Raycast
  m_TagString: Untagged
  m_Icon: {fileID: 0}
  m_NavMeshLayer: 0
  m_StaticEditorFlags: 0
  m_IsActive: 1
--- !u!4 &1113660736
Transform:
  m_ObjectHideFlags: 0
  m_PrefabParentObject: {fileID: 0}
  m_PrefabInternal: {fileID: 0}
  m_GameObject: {fileID: 1113660735}
  m_LocalRotation: {x: 0, y: 0, z: 0, w: 1}
  m_LocalPosition: {x: 0, y: 0, z: 0}
  m_LocalScale: {x: 1, y: 1, z: 1}
  m_Children: []
  m_Father: {fileID: 234904009}
  m_RootOrder: 1
  m_LocalEulerAnglesHint: {x: 0, y: 0, z: 0}
--- !u!114 &1113660737
MonoBehaviour:
  m_ObjectHideFlags: 0
  m_PrefabParentObject: {fileID: 0}
  m_PrefabInternal: {fileID: 0}
  m_GameObject: {fileID: 1113660735}
  m_Enabled: 1
  m_EditorHideFlags: 0
  m_Script: {fileID: 11500000, guid: 50b494e92bfad2340a52d5d05fc1b3ce, type: 3}
  m_Name: 
  m_EditorClassIdentifier: 
  OnRaycastResult:
    m_PersistentCalls:
      m_Calls:
      - m_Target: {fileID: 1562575249}
        m_MethodName: HandleOnRaycastHit
        m_Mode: 0
        m_Arguments:
          m_ObjectArgument: {fileID: 0}
          m_ObjectArgumentAssemblyTypeName: UnityEngine.Object, UnityEngine
          m_IntArgument: 0
          m_FloatArgument: 0
          m_StringArgument: 
          m_BoolArgument: 0
        m_CallState: 2
      - m_Target: {fileID: 1941677878}
        m_MethodName: OnRaycastHit
        m_Mode: 0
        m_Arguments:
          m_ObjectArgument: {fileID: 0}
          m_ObjectArgumentAssemblyTypeName: UnityEngine.Object, UnityEngine
          m_IntArgument: 0
          m_FloatArgument: 0
          m_StringArgument: 
          m_BoolArgument: 0
        m_CallState: 2
    m_TypeName: UnityEngine.XR.MagicLeap.BaseRaycast+RaycastResultEvent, Assembly-CSharp,
      Version=0.0.0.0, Culture=neutral, PublicKeyToken=null
  Width: 1
  Height: 1
  HorizontalFovDegrees: 0
  CollideWithUnobserved: 0
  _hitLayerMask:
    serializedVersion: 2
    m_Bits: 1
--- !u!1 &1209132469
GameObject:
  m_ObjectHideFlags: 0
  m_PrefabParentObject: {fileID: 1668819491066836, guid: 869fbdf6b6425694eb465928f60e4646,
    type: 2}
  m_PrefabInternal: {fileID: 4155952}
  serializedVersion: 5
  m_Component:
  - component: {fileID: 1209132470}
  - component: {fileID: 1209132472}
  - component: {fileID: 1209132471}
  m_Layer: 0
  m_Name: Z_Sphere2
  m_TagString: Untagged
  m_Icon: {fileID: 0}
  m_NavMeshLayer: 0
  m_StaticEditorFlags: 0
  m_IsActive: 1
--- !u!4 &1209132470
Transform:
  m_ObjectHideFlags: 0
  m_PrefabParentObject: {fileID: 4894616581040858, guid: 869fbdf6b6425694eb465928f60e4646,
    type: 2}
  m_PrefabInternal: {fileID: 4155952}
  m_GameObject: {fileID: 1209132469}
  m_LocalRotation: {x: 0, y: -0, z: -0, w: 1}
  m_LocalPosition: {x: -0, y: 0, z: 0.099999994}
  m_LocalScale: {x: 0.23608643, y: 0.23608643, z: 0.23608643}
  m_Children: []
  m_Father: {fileID: 1299423420}
  m_RootOrder: 14
  m_LocalEulerAnglesHint: {x: 0, y: 0, z: 0}
--- !u!23 &1209132471
MeshRenderer:
  m_ObjectHideFlags: 0
  m_PrefabParentObject: {fileID: 23468759460284604, guid: 869fbdf6b6425694eb465928f60e4646,
    type: 2}
  m_PrefabInternal: {fileID: 4155952}
  m_GameObject: {fileID: 1209132469}
  m_Enabled: 1
  m_CastShadows: 1
  m_ReceiveShadows: 1
  m_DynamicOccludee: 1
  m_MotionVectors: 1
  m_LightProbeUsage: 1
  m_ReflectionProbeUsage: 1
  m_RenderingLayerMask: 4294967295
  m_Materials:
  - {fileID: 2100000, guid: dce284ccd24f4ae4ab1bd9256da4a4bd, type: 2}
  m_StaticBatchInfo:
    firstSubMesh: 0
    subMeshCount: 0
  m_StaticBatchRoot: {fileID: 0}
  m_ProbeAnchor: {fileID: 0}
  m_LightProbeVolumeOverride: {fileID: 0}
  m_ScaleInLightmap: 1
  m_PreserveUVs: 0
  m_IgnoreNormalsForChartDetection: 0
  m_ImportantGI: 0
  m_StitchLightmapSeams: 0
  m_SelectedEditorRenderState: 3
  m_MinimumChartSize: 4
  m_AutoUVMaxDistance: 0.5
  m_AutoUVMaxAngle: 89
  m_LightmapParameters: {fileID: 0}
  m_SortingLayerID: 0
  m_SortingLayer: 0
  m_SortingOrder: 0
--- !u!33 &1209132472
MeshFilter:
  m_ObjectHideFlags: 0
  m_PrefabParentObject: {fileID: 33512364827194908, guid: 869fbdf6b6425694eb465928f60e4646,
    type: 2}
  m_PrefabInternal: {fileID: 4155952}
  m_GameObject: {fileID: 1209132469}
  m_Mesh: {fileID: 4300010, guid: 19e8f0334d30adc46be9a93a73b14e80, type: 3}
--- !u!1 &1263643294
GameObject:
  m_ObjectHideFlags: 0
  m_PrefabParentObject: {fileID: 1121567529789466, guid: 869fbdf6b6425694eb465928f60e4646,
    type: 2}
  m_PrefabInternal: {fileID: 4155952}
  serializedVersion: 5
  m_Component:
  - component: {fileID: 1263643295}
  - component: {fileID: 1263643297}
  - component: {fileID: 1263643296}
  m_Layer: 0
  m_Name: Y_Sphere1
  m_TagString: Untagged
  m_Icon: {fileID: 0}
  m_NavMeshLayer: 0
  m_StaticEditorFlags: 0
  m_IsActive: 1
--- !u!4 &1263643295
Transform:
  m_ObjectHideFlags: 0
  m_PrefabParentObject: {fileID: 4528727638679738, guid: 869fbdf6b6425694eb465928f60e4646,
    type: 2}
  m_PrefabInternal: {fileID: 4155952}
  m_GameObject: {fileID: 1263643294}
  m_LocalRotation: {x: 0, y: -0, z: -0, w: 1}
  m_LocalPosition: {x: -0, y: 0.099999905, z: 0}
  m_LocalScale: {x: 0.23608646, y: 0.23608646, z: 0.23608646}
  m_Children: []
  m_Father: {fileID: 1299423420}
  m_RootOrder: 8
  m_LocalEulerAnglesHint: {x: 0, y: 0, z: 0}
--- !u!23 &1263643296
MeshRenderer:
  m_ObjectHideFlags: 0
  m_PrefabParentObject: {fileID: 23508317508825046, guid: 869fbdf6b6425694eb465928f60e4646,
    type: 2}
  m_PrefabInternal: {fileID: 4155952}
  m_GameObject: {fileID: 1263643294}
  m_Enabled: 1
  m_CastShadows: 1
  m_ReceiveShadows: 1
  m_DynamicOccludee: 1
  m_MotionVectors: 1
  m_LightProbeUsage: 1
  m_ReflectionProbeUsage: 1
  m_RenderingLayerMask: 4294967295
  m_Materials:
  - {fileID: 2100000, guid: e7a7c9478d52894418873be6d4bfd5fe, type: 2}
  m_StaticBatchInfo:
    firstSubMesh: 0
    subMeshCount: 0
  m_StaticBatchRoot: {fileID: 0}
  m_ProbeAnchor: {fileID: 0}
  m_LightProbeVolumeOverride: {fileID: 0}
  m_ScaleInLightmap: 1
  m_PreserveUVs: 0
  m_IgnoreNormalsForChartDetection: 0
  m_ImportantGI: 0
  m_StitchLightmapSeams: 0
  m_SelectedEditorRenderState: 3
  m_MinimumChartSize: 4
  m_AutoUVMaxDistance: 0.5
  m_AutoUVMaxAngle: 89
  m_LightmapParameters: {fileID: 0}
  m_SortingLayerID: 0
  m_SortingLayer: 0
  m_SortingOrder: 0
--- !u!33 &1263643297
MeshFilter:
  m_ObjectHideFlags: 0
  m_PrefabParentObject: {fileID: 33155061046212446, guid: 869fbdf6b6425694eb465928f60e4646,
    type: 2}
  m_PrefabInternal: {fileID: 4155952}
  m_GameObject: {fileID: 1263643294}
  m_Mesh: {fileID: 4300016, guid: 19e8f0334d30adc46be9a93a73b14e80, type: 3}
--- !u!1 &1299423419
GameObject:
  m_ObjectHideFlags: 0
  m_PrefabParentObject: {fileID: 1823209863842394, guid: 869fbdf6b6425694eb465928f60e4646,
    type: 2}
  m_PrefabInternal: {fileID: 4155952}
  serializedVersion: 5
  m_Component:
  - component: {fileID: 1299423420}
  - component: {fileID: 1299423421}
  m_Layer: 0
  m_Name: Axis
  m_TagString: Untagged
  m_Icon: {fileID: 0}
  m_NavMeshLayer: 0
  m_StaticEditorFlags: 0
  m_IsActive: 0
--- !u!4 &1299423420
Transform:
  m_ObjectHideFlags: 0
  m_PrefabParentObject: {fileID: 4524752142350212, guid: 869fbdf6b6425694eb465928f60e4646,
    type: 2}
  m_PrefabInternal: {fileID: 4155952}
  m_GameObject: {fileID: 1299423419}
  m_LocalRotation: {x: 0, y: -0, z: -0, w: 1}
  m_LocalPosition: {x: -0, y: 0, z: 0}
  m_LocalScale: {x: 1, y: 1, z: 1}
  m_Children:
  - {fileID: 213152298}
  - {fileID: 1515868650}
  - {fileID: 2146824469}
  - {fileID: 1808289626}
  - {fileID: 1053141206}
  - {fileID: 2013718546}
  - {fileID: 1475897903}
  - {fileID: 731896045}
  - {fileID: 1263643295}
  - {fileID: 1742278938}
  - {fileID: 104813710}
  - {fileID: 1103379790}
  - {fileID: 1476356976}
  - {fileID: 2077444754}
  - {fileID: 1209132470}
  - {fileID: 304120253}
  - {fileID: 58060475}
  m_Father: {fileID: 350751764}
  m_RootOrder: 0
  m_LocalEulerAnglesHint: {x: 0, y: 0, z: 0}
--- !u!95 &1299423421
Animator:
  serializedVersion: 3
  m_ObjectHideFlags: 0
  m_PrefabParentObject: {fileID: 95375065077977314, guid: 869fbdf6b6425694eb465928f60e4646,
    type: 2}
  m_PrefabInternal: {fileID: 4155952}
  m_GameObject: {fileID: 1299423419}
  m_Enabled: 1
  m_Avatar: {fileID: 9000000, guid: 19e8f0334d30adc46be9a93a73b14e80, type: 3}
  m_Controller: {fileID: 9100000, guid: 61154757d04d6214aabf00d658dc0cf5, type: 2}
  m_CullingMode: 0
  m_UpdateMode: 0
  m_ApplyRootMotion: 0
  m_LinearVelocityBlending: 0
  m_WarningMessage: 
  m_HasTransformHierarchy: 1
  m_AllowConstantClipSamplingOptimization: 1
  m_KeepAnimatorControllerStateOnDisable: 0
--- !u!1 &1343717946
GameObject:
  m_ObjectHideFlags: 0
  m_PrefabParentObject: {fileID: 0}
  m_PrefabInternal: {fileID: 0}
  serializedVersion: 5
  m_Component:
  - component: {fileID: 1343717947}
  - component: {fileID: 1343717949}
  - component: {fileID: 1343717948}
  m_Layer: 5
  m_Name: 'Text: Instructions'
  m_TagString: Untagged
  m_Icon: {fileID: 0}
  m_NavMeshLayer: 0
  m_StaticEditorFlags: 0
  m_IsActive: 1
--- !u!224 &1343717947
RectTransform:
  m_ObjectHideFlags: 0
  m_PrefabParentObject: {fileID: 0}
  m_PrefabInternal: {fileID: 0}
  m_GameObject: {fileID: 1343717946}
  m_LocalRotation: {x: -0, y: -0, z: -0, w: 1}
  m_LocalPosition: {x: 0, y: 0, z: 0}
  m_LocalScale: {x: 0.0015, y: 0.0015, z: 0}
  m_Children: []
  m_Father: {fileID: 1827102959}
  m_RootOrder: 2
  m_LocalEulerAnglesHint: {x: 0, y: 0, z: 0}
  m_AnchorMin: {x: 0.5, y: 0.5}
  m_AnchorMax: {x: 0.5, y: 0.5}
  m_AnchoredPosition: {x: -0.24, y: 0.157}
  m_SizeDelta: {x: 313.33, y: 100}
  m_Pivot: {x: 0.5, y: 0.5}
--- !u!114 &1343717948
MonoBehaviour:
  m_ObjectHideFlags: 0
  m_PrefabParentObject: {fileID: 0}
  m_PrefabInternal: {fileID: 0}
  m_GameObject: {fileID: 1343717946}
  m_Enabled: 1
  m_EditorHideFlags: 0
  m_Script: {fileID: 708705254, guid: f70555f144d8491a825f0804e09c671c, type: 3}
  m_Name: 
  m_EditorClassIdentifier: 
  m_Material: {fileID: 0}
  m_Color: {r: 1, g: 1, b: 1, a: 1}
  m_RaycastTarget: 1
  m_OnCullStateChanged:
    m_PersistentCalls:
      m_Calls: []
    m_TypeName: UnityEngine.UI.MaskableGraphic+CullStateChangedEvent, UnityEngine.UI,
      Version=1.0.0.0, Culture=neutral, PublicKeyToken=null
  m_FontData:
    m_Font: {fileID: 12800000, guid: adcae46baa3736748a69f9f489676bd7, type: 3}
    m_FontSize: 12
    m_FontStyle: 0
    m_BestFit: 0
    m_MinSize: 1
    m_MaxSize: 40
    m_Alignment: 0
    m_AlignByGeometry: 0
    m_RichText: 1
    m_HorizontalOverflow: 0
    m_VerticalOverflow: 0
    m_LineSpacing: 1
  m_Text: "Bumper:\n    Toggle viewing texture/border\nHomeTap:\n    Toggle bounds
    bounded/boundless\nTouchpad:\n    SwipeRight/Left: Manipulate texture\n"
--- !u!222 &1343717949
CanvasRenderer:
  m_ObjectHideFlags: 0
  m_PrefabParentObject: {fileID: 0}
  m_PrefabInternal: {fileID: 0}
  m_GameObject: {fileID: 1343717946}
--- !u!1 &1462129510
GameObject:
  m_ObjectHideFlags: 0
  m_PrefabParentObject: {fileID: 0}
  m_PrefabInternal: {fileID: 0}
  serializedVersion: 5
  m_Component:
  - component: {fileID: 1462129512}
  - component: {fileID: 1462129511}
  m_Layer: 0
  m_Name: Directional Light
  m_TagString: Untagged
  m_Icon: {fileID: 0}
  m_NavMeshLayer: 0
  m_StaticEditorFlags: 0
  m_IsActive: 1
--- !u!108 &1462129511
Light:
  m_ObjectHideFlags: 0
  m_PrefabParentObject: {fileID: 0}
  m_PrefabInternal: {fileID: 0}
  m_GameObject: {fileID: 1462129510}
  m_Enabled: 1
  serializedVersion: 8
  m_Type: 1
  m_Color: {r: 1, g: 0.95686275, b: 0.8392157, a: 1}
  m_Intensity: 1
  m_Range: 10
  m_SpotAngle: 30
  m_CookieSize: 10
  m_Shadows:
    m_Type: 2
    m_Resolution: -1
    m_CustomResolution: -1
    m_Strength: 1
    m_Bias: 0.05
    m_NormalBias: 0.4
    m_NearPlane: 0.2
  m_Cookie: {fileID: 0}
  m_DrawHalo: 0
  m_Flare: {fileID: 0}
  m_RenderMode: 0
  m_CullingMask:
    serializedVersion: 2
    m_Bits: 4294967295
  m_Lightmapping: 4
  m_AreaSize: {x: 1, y: 1}
  m_BounceIntensity: 1
  m_ColorTemperature: 6570
  m_UseColorTemperature: 0
  m_ShadowRadius: 0
  m_ShadowAngle: 0
--- !u!4 &1462129512
Transform:
  m_ObjectHideFlags: 0
  m_PrefabParentObject: {fileID: 0}
  m_PrefabInternal: {fileID: 0}
  m_GameObject: {fileID: 1462129510}
  m_LocalRotation: {x: 0.40821797, y: -0.23456973, z: 0.10938168, w: 0.87542605}
  m_LocalPosition: {x: 0, y: 3, z: 0}
  m_LocalScale: {x: 1, y: 1, z: 1}
  m_Children: []
  m_Father: {fileID: 1731829235}
  m_RootOrder: 0
  m_LocalEulerAnglesHint: {x: 0, y: 0, z: 0}
--- !u!1 &1475897902
GameObject:
  m_ObjectHideFlags: 0
  m_PrefabParentObject: {fileID: 1531980056078288, guid: 869fbdf6b6425694eb465928f60e4646,
    type: 2}
  m_PrefabInternal: {fileID: 4155952}
  serializedVersion: 5
  m_Component:
  - component: {fileID: 1475897903}
  - component: {fileID: 1475897905}
  - component: {fileID: 1475897904}
  m_Layer: 0
  m_Name: X_Sphere4
  m_TagString: Untagged
  m_Icon: {fileID: 0}
  m_NavMeshLayer: 0
  m_StaticEditorFlags: 0
  m_IsActive: 1
--- !u!4 &1475897903
Transform:
  m_ObjectHideFlags: 0
  m_PrefabParentObject: {fileID: 4453491368000158, guid: 869fbdf6b6425694eb465928f60e4646,
    type: 2}
  m_PrefabInternal: {fileID: 4155952}
  m_GameObject: {fileID: 1475897902}
  m_LocalRotation: {x: 0, y: -0, z: -0, w: 1}
  m_LocalPosition: {x: -0.099999845, y: 0, z: 0}
  m_LocalScale: {x: 0.23608647, y: 0.23608647, z: 0.23608647}
  m_Children: []
  m_Father: {fileID: 1299423420}
  m_RootOrder: 6
  m_LocalEulerAnglesHint: {x: 0, y: 0, z: 0}
--- !u!23 &1475897904
MeshRenderer:
  m_ObjectHideFlags: 0
  m_PrefabParentObject: {fileID: 23761900073809886, guid: 869fbdf6b6425694eb465928f60e4646,
    type: 2}
  m_PrefabInternal: {fileID: 4155952}
  m_GameObject: {fileID: 1475897902}
  m_Enabled: 1
  m_CastShadows: 1
  m_ReceiveShadows: 1
  m_DynamicOccludee: 1
  m_MotionVectors: 1
  m_LightProbeUsage: 1
  m_ReflectionProbeUsage: 1
  m_RenderingLayerMask: 4294967295
  m_Materials:
  - {fileID: 2100000, guid: 5808511577e4da7488e7fc2fcfb7d238, type: 2}
  m_StaticBatchInfo:
    firstSubMesh: 0
    subMeshCount: 0
  m_StaticBatchRoot: {fileID: 0}
  m_ProbeAnchor: {fileID: 0}
  m_LightProbeVolumeOverride: {fileID: 0}
  m_ScaleInLightmap: 1
  m_PreserveUVs: 0
  m_IgnoreNormalsForChartDetection: 0
  m_ImportantGI: 0
  m_StitchLightmapSeams: 0
  m_SelectedEditorRenderState: 3
  m_MinimumChartSize: 4
  m_AutoUVMaxDistance: 0.5
  m_AutoUVMaxAngle: 89
  m_LightmapParameters: {fileID: 0}
  m_SortingLayerID: 0
  m_SortingLayer: 0
  m_SortingOrder: 0
--- !u!33 &1475897905
MeshFilter:
  m_ObjectHideFlags: 0
  m_PrefabParentObject: {fileID: 33777299542004864, guid: 869fbdf6b6425694eb465928f60e4646,
    type: 2}
  m_PrefabInternal: {fileID: 4155952}
  m_GameObject: {fileID: 1475897902}
  m_Mesh: {fileID: 4300030, guid: 19e8f0334d30adc46be9a93a73b14e80, type: 3}
--- !u!1 &1476356975
GameObject:
  m_ObjectHideFlags: 0
  m_PrefabParentObject: {fileID: 1669891350048596, guid: 869fbdf6b6425694eb465928f60e4646,
    type: 2}
  m_PrefabInternal: {fileID: 4155952}
  serializedVersion: 5
  m_Component:
  - component: {fileID: 1476356976}
  - component: {fileID: 1476356978}
  - component: {fileID: 1476356977}
  m_Layer: 0
  m_Name: Z_Sphere
  m_TagString: Untagged
  m_Icon: {fileID: 0}
  m_NavMeshLayer: 0
  m_StaticEditorFlags: 0
  m_IsActive: 1
--- !u!4 &1476356976
Transform:
  m_ObjectHideFlags: 0
  m_PrefabParentObject: {fileID: 4356178883600974, guid: 869fbdf6b6425694eb465928f60e4646,
    type: 2}
  m_PrefabInternal: {fileID: 4155952}
  m_GameObject: {fileID: 1476356975}
  m_LocalRotation: {x: 0, y: -0, z: -0, w: 1}
  m_LocalPosition: {x: -0, y: 0, z: 0.100000076}
  m_LocalScale: {x: 0.2360864, y: 0.2360864, z: 0.2360864}
  m_Children: []
  m_Father: {fileID: 1299423420}
  m_RootOrder: 12
  m_LocalEulerAnglesHint: {x: 0, y: 0, z: 0}
--- !u!23 &1476356977
MeshRenderer:
  m_ObjectHideFlags: 0
  m_PrefabParentObject: {fileID: 23020344495240934, guid: 869fbdf6b6425694eb465928f60e4646,
    type: 2}
  m_PrefabInternal: {fileID: 4155952}
  m_GameObject: {fileID: 1476356975}
  m_Enabled: 1
  m_CastShadows: 1
  m_ReceiveShadows: 1
  m_DynamicOccludee: 1
  m_MotionVectors: 1
  m_LightProbeUsage: 1
  m_ReflectionProbeUsage: 1
  m_RenderingLayerMask: 4294967295
  m_Materials:
  - {fileID: 2100000, guid: dce284ccd24f4ae4ab1bd9256da4a4bd, type: 2}
  m_StaticBatchInfo:
    firstSubMesh: 0
    subMeshCount: 0
  m_StaticBatchRoot: {fileID: 0}
  m_ProbeAnchor: {fileID: 0}
  m_LightProbeVolumeOverride: {fileID: 0}
  m_ScaleInLightmap: 1
  m_PreserveUVs: 0
  m_IgnoreNormalsForChartDetection: 0
  m_ImportantGI: 0
  m_StitchLightmapSeams: 0
  m_SelectedEditorRenderState: 3
  m_MinimumChartSize: 4
  m_AutoUVMaxDistance: 0.5
  m_AutoUVMaxAngle: 89
  m_LightmapParameters: {fileID: 0}
  m_SortingLayerID: 0
  m_SortingLayer: 0
  m_SortingOrder: 0
--- !u!33 &1476356978
MeshFilter:
  m_ObjectHideFlags: 0
  m_PrefabParentObject: {fileID: 33265767361977014, guid: 869fbdf6b6425694eb465928f60e4646,
    type: 2}
  m_PrefabInternal: {fileID: 4155952}
  m_GameObject: {fileID: 1476356975}
  m_Mesh: {fileID: 4300002, guid: 19e8f0334d30adc46be9a93a73b14e80, type: 3}
--- !u!1 &1497288036
GameObject:
  m_ObjectHideFlags: 0
  m_PrefabParentObject: {fileID: 0}
  m_PrefabInternal: {fileID: 0}
  serializedVersion: 5
  m_Component:
  - component: {fileID: 1497288040}
  - component: {fileID: 1497288044}
  - component: {fileID: 1497288037}
  - component: {fileID: 1497288043}
  m_Layer: 0
  m_Name: PlanesExample
  m_TagString: Untagged
  m_Icon: {fileID: 0}
  m_NavMeshLayer: 0
  m_StaticEditorFlags: 0
  m_IsActive: 1
--- !u!114 &1497288037
MonoBehaviour:
  m_ObjectHideFlags: 0
  m_PrefabParentObject: {fileID: 0}
  m_PrefabInternal: {fileID: 0}
  m_GameObject: {fileID: 1497288036}
  m_Enabled: 1
  m_EditorHideFlags: 0
  m_Script: {fileID: 11500000, guid: 01c2c6c9ca10fc64eadd2d6001cb4bc6, type: 3}
  m_Name: 
  m_EditorClassIdentifier: 
  _bounded: 0
  _boundsWireframeCube: {fileID: 350751763}
  _numberOfPlanesText: {fileID: 1035776744}
  _boundedExtentsText: {fileID: 817472448}
--- !u!4 &1497288040
Transform:
  m_ObjectHideFlags: 0
  m_PrefabParentObject: {fileID: 0}
  m_PrefabInternal: {fileID: 0}
  m_GameObject: {fileID: 1497288036}
  m_LocalRotation: {x: -0, y: -0, z: -0, w: 1}
  m_LocalPosition: {x: 0, y: 0, z: 0}
  m_LocalScale: {x: 1, y: 1, z: 1}
  m_Children:
  - {fileID: 350751764}
  m_Father: {fileID: 234904009}
  m_RootOrder: 0
  m_LocalEulerAnglesHint: {x: 0, y: 0, z: 0}
--- !u!114 &1497288043
MonoBehaviour:
  m_ObjectHideFlags: 0
  m_PrefabParentObject: {fileID: 0}
  m_PrefabInternal: {fileID: 0}
  m_GameObject: {fileID: 1497288036}
  m_Enabled: 1
  m_EditorHideFlags: 0
  m_Script: {fileID: 11500000, guid: 82076fa066bc8e847b6072e099268cb0, type: 3}
  m_Name: 
  m_EditorClassIdentifier: 
  PlaneVisualPrefab: {fileID: 1572420545925630, guid: d0351538d524663448f7c5b7db4a371b,
    type: 2}
  WallMaterial: {fileID: 2100000, guid: a9beea521267ba94a9017846aab52d89, type: 2}
  FloorMaterial: {fileID: 2100000, guid: 4f8b1fc68e26095488db3aa3e61e9a87, type: 2}
  CeilingMaterial: {fileID: 2100000, guid: d05a06163b51ba34bb7211433cdcf454, type: 2}
  DefaultMaterial: {fileID: 2100000, guid: 06aa525e348f72349b49116b2180d07b, type: 2}
  BorderMaterial: {fileID: 2100000, guid: a31b9648f4fad5b4298fa74cf6a2ce5a, type: 2}
  _renderModeText: {fileID: 756972220}
--- !u!114 &1497288044
MonoBehaviour:
  m_ObjectHideFlags: 0
  m_PrefabParentObject: {fileID: 0}
  m_PrefabInternal: {fileID: 0}
  m_GameObject: {fileID: 1497288036}
  m_Enabled: 1
  m_EditorHideFlags: 0
  m_Script: {fileID: 11500000, guid: 39cafb8ae838a734fa6175d19cdc4852, type: 3}
  m_Name: 
  m_EditorClassIdentifier: 
  MaxPlaneCount: 512
  SemanticFlags: 448
  OrientationFlags: 7
  MinPlaneArea: 0.04
  InnerPlanes: 1
  IgnoreHoles: 1
  MinHoleLength: 0
  OrientToGravity: 1
  OnUpdateEvent:
    m_PersistentCalls:
      m_Calls:
      - m_Target: {fileID: 1497288043}
        m_MethodName: OnPlanesUpdate
        m_Mode: 0
        m_Arguments:
          m_ObjectArgument: {fileID: 0}
          m_ObjectArgumentAssemblyTypeName: UnityEngine.Object, UnityEngine
          m_IntArgument: 0
          m_FloatArgument: 0
          m_StringArgument: 
          m_BoolArgument: 0
        m_CallState: 2
      - m_Target: {fileID: 1497288037}
        m_MethodName: OnPlanesUpdate
        m_Mode: 0
        m_Arguments:
          m_ObjectArgument: {fileID: 0}
          m_ObjectArgumentAssemblyTypeName: UnityEngine.Object, UnityEngine
          m_IntArgument: 0
          m_FloatArgument: 0
          m_StringArgument: 
          m_BoolArgument: 0
        m_CallState: 2
    m_TypeName: UnityEngine.XR.MagicLeap.Planes+PlanesUpdateEvent, Assembly-CSharp,
      Version=0.0.0.0, Culture=neutral, PublicKeyToken=null
--- !u!1 &1515868649
GameObject:
  m_ObjectHideFlags: 0
  m_PrefabParentObject: {fileID: 1429394819381884, guid: 869fbdf6b6425694eb465928f60e4646,
    type: 2}
  m_PrefabInternal: {fileID: 4155952}
  serializedVersion: 5
  m_Component:
  - component: {fileID: 1515868650}
  m_Layer: 0
  m_Name: Ends
  m_TagString: Untagged
  m_Icon: {fileID: 0}
  m_NavMeshLayer: 0
  m_StaticEditorFlags: 0
  m_IsActive: 1
--- !u!4 &1515868650
Transform:
  m_ObjectHideFlags: 0
  m_PrefabParentObject: {fileID: 4215834493076158, guid: 869fbdf6b6425694eb465928f60e4646,
    type: 2}
  m_PrefabInternal: {fileID: 4155952}
  m_GameObject: {fileID: 1515868649}
  m_LocalRotation: {x: 0, y: -0, z: -0, w: 1}
  m_LocalPosition: {x: -0, y: 0, z: 0}
  m_LocalScale: {x: 1, y: 1, z: 1}
  m_Children:
  - {fileID: 175602915}
  - {fileID: 602688834}
  - {fileID: 813484188}
  m_Father: {fileID: 1299423420}
  m_RootOrder: 1
  m_LocalEulerAnglesHint: {x: 0, y: 0, z: 0}
--- !u!1 &1532296883
GameObject:
  m_ObjectHideFlags: 0
  m_PrefabParentObject: {fileID: 116920, guid: 87f2fe92c3dd2d54eab367aff9b2c8a5, type: 2}
  m_PrefabInternal: {fileID: 0}
  serializedVersion: 5
  m_Component:
  - component: {fileID: 1532296884}
  - component: {fileID: 1532296888}
  m_Layer: 0
  m_Name: Main Camera
  m_TagString: MainCamera
  m_Icon: {fileID: 0}
  m_NavMeshLayer: 0
  m_StaticEditorFlags: 0
  m_IsActive: 1
--- !u!4 &1532296884
Transform:
  m_ObjectHideFlags: 0
  m_PrefabParentObject: {fileID: 470438, guid: 87f2fe92c3dd2d54eab367aff9b2c8a5, type: 2}
  m_PrefabInternal: {fileID: 0}
  m_GameObject: {fileID: 1532296883}
  m_LocalRotation: {x: 0, y: 0, z: 0, w: 1}
  m_LocalPosition: {x: 0, y: 0, z: 0}
  m_LocalScale: {x: 1, y: 1, z: 1}
  m_Children: []
  m_Father: {fileID: 1731829235}
  m_RootOrder: 1
  m_LocalEulerAnglesHint: {x: 0, y: 0, z: 0}
--- !u!20 &1532296888
Camera:
  m_ObjectHideFlags: 0
  m_PrefabParentObject: {fileID: 2076694, guid: 87f2fe92c3dd2d54eab367aff9b2c8a5,
    type: 2}
  m_PrefabInternal: {fileID: 0}
  m_GameObject: {fileID: 1532296883}
  m_Enabled: 1
  serializedVersion: 2
  m_ClearFlags: 2
  m_BackGroundColor: {r: 0, g: 0, b: 0, a: 0}
  m_NormalizedViewPortRect:
    serializedVersion: 2
    x: 0
    y: 0
    width: 1
    height: 1
  near clip plane: 0.37037
  far clip plane: 10
  field of view: 60
  orthographic: 0
  orthographic size: 5
  m_Depth: -1
  m_CullingMask:
    serializedVersion: 2
    m_Bits: 4294967295
  m_RenderingPath: -1
  m_TargetTexture: {fileID: 0}
  m_TargetDisplay: 0
  m_TargetEye: 3
  m_HDR: 0
  m_AllowMSAA: 1
  m_AllowDynamicResolution: 0
  m_ForceIntoRT: 0
  m_OcclusionCulling: 1
  m_StereoConvergence: 10
  m_StereoConvergencePoint: {fileID: 0}
  m_StereoSeparation: 0.062
--- !u!1 &1562575243
GameObject:
  m_ObjectHideFlags: 0
  m_PrefabParentObject: {fileID: 0}
  m_PrefabInternal: {fileID: 0}
  serializedVersion: 5
  m_Component:
  - component: {fileID: 1562575244}
  - component: {fileID: 1562575245}
  - component: {fileID: 1562575246}
  - component: {fileID: 1562575247}
  - component: {fileID: 1562575248}
  - component: {fileID: 1562575249}
  m_Layer: 0
  m_Name: MaterialControllers
  m_TagString: Untagged
  m_Icon: {fileID: 0}
  m_NavMeshLayer: 0
  m_StaticEditorFlags: 0
  m_IsActive: 1
--- !u!4 &1562575244
Transform:
  m_ObjectHideFlags: 0
  m_PrefabParentObject: {fileID: 0}
  m_PrefabInternal: {fileID: 0}
  m_GameObject: {fileID: 1562575243}
  m_LocalRotation: {x: 0, y: 0, z: 0, w: 1}
  m_LocalPosition: {x: 0, y: 0, z: 0}
  m_LocalScale: {x: 1, y: 1, z: 1}
  m_Children: []
  m_Father: {fileID: 234904009}
  m_RootOrder: 3
  m_LocalEulerAnglesHint: {x: 0, y: 0, z: 0}
--- !u!114 &1562575245
MonoBehaviour:
  m_ObjectHideFlags: 0
  m_PrefabParentObject: {fileID: 0}
  m_PrefabInternal: {fileID: 0}
  m_GameObject: {fileID: 1562575243}
  m_Enabled: 1
  m_EditorHideFlags: 0
  m_Script: {fileID: 11500000, guid: c7ab9704b48460c4f8387592207afa54, type: 3}
  m_Name: 
  m_EditorClassIdentifier: 
  _material: {fileID: 2100000, guid: d05a06163b51ba34bb7211433cdcf454, type: 2}
  _statusText: {fileID: 1919571800}
  _textOnView: Viewing Ceiling
  _xOffsetSpeed: 0.1
--- !u!114 &1562575246
MonoBehaviour:
  m_ObjectHideFlags: 0
  m_PrefabParentObject: {fileID: 0}
  m_PrefabInternal: {fileID: 0}
  m_GameObject: {fileID: 1562575243}
  m_Enabled: 1
  m_EditorHideFlags: 0
  m_Script: {fileID: 11500000, guid: 113f2d743e61ad04ca9d430783200b4f, type: 3}
  m_Name: 
  m_EditorClassIdentifier: 
  _material: {fileID: 2100000, guid: a9beea521267ba94a9017846aab52d89, type: 2}
  _statusText: {fileID: 1919571800}
  _textOnView: Viewing Wall
--- !u!114 &1562575247
MonoBehaviour:
  m_ObjectHideFlags: 0
  m_PrefabParentObject: {fileID: 0}
  m_PrefabInternal: {fileID: 0}
  m_GameObject: {fileID: 1562575243}
  m_Enabled: 1
  m_EditorHideFlags: 0
  m_Script: {fileID: 11500000, guid: a3384cceeeb7a2e428f638bf1c9c02b6, type: 3}
  m_Name: 
  m_EditorClassIdentifier: 
  _material: {fileID: 2100000, guid: 4f8b1fc68e26095488db3aa3e61e9a87, type: 2}
  _statusText: {fileID: 1919571800}
  _textOnView: Viewing Floor
  _gradient:
    serializedVersion: 2
    key0: {r: 1, g: 0.8, b: 0, a: 1}
    key1: {r: 0.8166666, g: 0, b: 1, a: 1}
    key2: {r: 0, g: 1, b: 0.8166666, a: 0}
    key3: {r: 1, g: 0.8, b: 0, a: 0}
    key4: {r: 0, g: 0, b: 0, a: 0}
    key5: {r: 0, g: 0, b: 0, a: 0}
    key6: {r: 0, g: 0, b: 0, a: 0}
    key7: {r: 0, g: 0, b: 0, a: 0}
    ctime0: 0
    ctime1: 21823
    ctime2: 43646
    ctime3: 65535
    ctime4: 0
    ctime5: 0
    ctime6: 0
    ctime7: 0
    atime0: 0
    atime1: 65535
    atime2: 0
    atime3: 0
    atime4: 0
    atime5: 0
    atime6: 0
    atime7: 0
    m_Mode: 0
    m_NumColorKeys: 4
    m_NumAlphaKeys: 2
--- !u!114 &1562575248
MonoBehaviour:
  m_ObjectHideFlags: 0
  m_PrefabParentObject: {fileID: 0}
  m_PrefabInternal: {fileID: 0}
  m_GameObject: {fileID: 1562575243}
  m_Enabled: 1
  m_EditorHideFlags: 0
  m_Script: {fileID: 11500000, guid: be2544267c864dd488f3222c36e3b679, type: 3}
  m_Name: 
  m_EditorClassIdentifier: 
  _material: {fileID: 2100000, guid: 06aa525e348f72349b49116b2180d07b, type: 2}
  _statusText: {fileID: 1919571800}
  _textOnView: Viewing Generic Plane
--- !u!114 &1562575249
MonoBehaviour:
  m_ObjectHideFlags: 0
  m_PrefabParentObject: {fileID: 0}
  m_PrefabInternal: {fileID: 0}
  m_GameObject: {fileID: 1562575243}
  m_Enabled: 1
  m_EditorHideFlags: 0
  m_Script: {fileID: 11500000, guid: 4bbe068ae8e2e8844bd2469a6e7e7b60, type: 3}
  m_Name: 
  m_EditorClassIdentifier: 
  _visualizer: {fileID: 1497288043}
  _statusText: {fileID: 1919571800}
--- !u!1 &1731829234
GameObject:
  m_ObjectHideFlags: 0
  m_PrefabParentObject: {fileID: 0}
  m_PrefabInternal: {fileID: 0}
  serializedVersion: 5
  m_Component:
  - component: {fileID: 1731829235}
  m_Layer: 0
  m_Name: '[RENDERING]'
  m_TagString: Untagged
  m_Icon: {fileID: 0}
  m_NavMeshLayer: 0
  m_StaticEditorFlags: 0
  m_IsActive: 1
--- !u!4 &1731829235
Transform:
  m_ObjectHideFlags: 0
  m_PrefabParentObject: {fileID: 0}
  m_PrefabInternal: {fileID: 0}
  m_GameObject: {fileID: 1731829234}
  m_LocalRotation: {x: 0, y: 0, z: 0, w: 1}
  m_LocalPosition: {x: 0, y: 0, z: 0}
  m_LocalScale: {x: 1, y: 1, z: 1}
  m_Children:
  - {fileID: 1462129512}
  - {fileID: 1532296884}
  - {fileID: 1827102959}
  m_Father: {fileID: 0}
  m_RootOrder: 1
  m_LocalEulerAnglesHint: {x: 0, y: 0, z: 0}
--- !u!1 &1742278937
GameObject:
  m_ObjectHideFlags: 0
  m_PrefabParentObject: {fileID: 1381819504636372, guid: 869fbdf6b6425694eb465928f60e4646,
    type: 2}
  m_PrefabInternal: {fileID: 4155952}
  serializedVersion: 5
  m_Component:
  - component: {fileID: 1742278938}
  - component: {fileID: 1742278940}
  - component: {fileID: 1742278939}
  m_Layer: 0
  m_Name: Y_Sphere2
  m_TagString: Untagged
  m_Icon: {fileID: 0}
  m_NavMeshLayer: 0
  m_StaticEditorFlags: 0
  m_IsActive: 1
--- !u!4 &1742278938
Transform:
  m_ObjectHideFlags: 0
  m_PrefabParentObject: {fileID: 4803330961297042, guid: 869fbdf6b6425694eb465928f60e4646,
    type: 2}
  m_PrefabInternal: {fileID: 4155952}
  m_GameObject: {fileID: 1742278937}
  m_LocalRotation: {x: 0, y: -0, z: -0, w: 1}
  m_LocalPosition: {x: -0, y: 0.099999994, z: 0}
  m_LocalScale: {x: 0.23608643, y: 0.23608643, z: 0.23608643}
  m_Children: []
  m_Father: {fileID: 1299423420}
  m_RootOrder: 9
  m_LocalEulerAnglesHint: {x: 0, y: 0, z: 0}
--- !u!23 &1742278939
MeshRenderer:
  m_ObjectHideFlags: 0
  m_PrefabParentObject: {fileID: 23086770831929008, guid: 869fbdf6b6425694eb465928f60e4646,
    type: 2}
  m_PrefabInternal: {fileID: 4155952}
  m_GameObject: {fileID: 1742278937}
  m_Enabled: 1
  m_CastShadows: 1
  m_ReceiveShadows: 1
  m_DynamicOccludee: 1
  m_MotionVectors: 1
  m_LightProbeUsage: 1
  m_ReflectionProbeUsage: 1
  m_RenderingLayerMask: 4294967295
  m_Materials:
  - {fileID: 2100000, guid: e7a7c9478d52894418873be6d4bfd5fe, type: 2}
  m_StaticBatchInfo:
    firstSubMesh: 0
    subMeshCount: 0
  m_StaticBatchRoot: {fileID: 0}
  m_ProbeAnchor: {fileID: 0}
  m_LightProbeVolumeOverride: {fileID: 0}
  m_ScaleInLightmap: 1
  m_PreserveUVs: 0
  m_IgnoreNormalsForChartDetection: 0
  m_ImportantGI: 0
  m_StitchLightmapSeams: 0
  m_SelectedEditorRenderState: 3
  m_MinimumChartSize: 4
  m_AutoUVMaxDistance: 0.5
  m_AutoUVMaxAngle: 89
  m_LightmapParameters: {fileID: 0}
  m_SortingLayerID: 0
  m_SortingLayer: 0
  m_SortingOrder: 0
--- !u!33 &1742278940
MeshFilter:
  m_ObjectHideFlags: 0
  m_PrefabParentObject: {fileID: 33839701280536290, guid: 869fbdf6b6425694eb465928f60e4646,
    type: 2}
  m_PrefabInternal: {fileID: 4155952}
  m_GameObject: {fileID: 1742278937}
  m_Mesh: {fileID: 4300018, guid: 19e8f0334d30adc46be9a93a73b14e80, type: 3}
--- !u!1 &1808289625
GameObject:
  m_ObjectHideFlags: 0
  m_PrefabParentObject: {fileID: 1677155497472596, guid: 869fbdf6b6425694eb465928f60e4646,
    type: 2}
  m_PrefabInternal: {fileID: 4155952}
  serializedVersion: 5
  m_Component:
  - component: {fileID: 1808289626}
  - component: {fileID: 1808289628}
  - component: {fileID: 1808289627}
  m_Layer: 0
  m_Name: X_Sphere1
  m_TagString: Untagged
  m_Icon: {fileID: 0}
  m_NavMeshLayer: 0
  m_StaticEditorFlags: 0
  m_IsActive: 1
--- !u!4 &1808289626
Transform:
  m_ObjectHideFlags: 0
  m_PrefabParentObject: {fileID: 4440919926845932, guid: 869fbdf6b6425694eb465928f60e4646,
    type: 2}
  m_PrefabInternal: {fileID: 4155952}
  m_GameObject: {fileID: 1808289625}
  m_LocalRotation: {x: 0, y: -0, z: -0, w: 1}
  m_LocalPosition: {x: -0.099999905, y: 0, z: 0}
  m_LocalScale: {x: 0.23608646, y: 0.23608646, z: 0.23608646}
  m_Children: []
  m_Father: {fileID: 1299423420}
  m_RootOrder: 3
  m_LocalEulerAnglesHint: {x: 0, y: 0, z: 0}
--- !u!23 &1808289627
MeshRenderer:
  m_ObjectHideFlags: 0
  m_PrefabParentObject: {fileID: 23818465250680462, guid: 869fbdf6b6425694eb465928f60e4646,
    type: 2}
  m_PrefabInternal: {fileID: 4155952}
  m_GameObject: {fileID: 1808289625}
  m_Enabled: 1
  m_CastShadows: 1
  m_ReceiveShadows: 1
  m_DynamicOccludee: 1
  m_MotionVectors: 1
  m_LightProbeUsage: 1
  m_ReflectionProbeUsage: 1
  m_RenderingLayerMask: 4294967295
  m_Materials:
  - {fileID: 2100000, guid: 5808511577e4da7488e7fc2fcfb7d238, type: 2}
  m_StaticBatchInfo:
    firstSubMesh: 0
    subMeshCount: 0
  m_StaticBatchRoot: {fileID: 0}
  m_ProbeAnchor: {fileID: 0}
  m_LightProbeVolumeOverride: {fileID: 0}
  m_ScaleInLightmap: 1
  m_PreserveUVs: 0
  m_IgnoreNormalsForChartDetection: 0
  m_ImportantGI: 0
  m_StitchLightmapSeams: 0
  m_SelectedEditorRenderState: 3
  m_MinimumChartSize: 4
  m_AutoUVMaxDistance: 0.5
  m_AutoUVMaxAngle: 89
  m_LightmapParameters: {fileID: 0}
  m_SortingLayerID: 0
  m_SortingLayer: 0
  m_SortingOrder: 0
--- !u!33 &1808289628
MeshFilter:
  m_ObjectHideFlags: 0
  m_PrefabParentObject: {fileID: 33089125787365202, guid: 869fbdf6b6425694eb465928f60e4646,
    type: 2}
  m_PrefabInternal: {fileID: 4155952}
  m_GameObject: {fileID: 1808289625}
  m_Mesh: {fileID: 4300024, guid: 19e8f0334d30adc46be9a93a73b14e80, type: 3}
--- !u!224 &1827102959
RectTransform:
  m_ObjectHideFlags: 0
  m_PrefabParentObject: {fileID: 224429418900042632, guid: dcbf1437f0912414da095cb522586e5c,
    type: 2}
  m_PrefabInternal: {fileID: 0}
  m_GameObject: {fileID: 2003907629}
  m_LocalRotation: {x: -0, y: -0, z: -0, w: 1}
  m_LocalPosition: {x: 0, y: 0, z: 0}
  m_LocalScale: {x: 1, y: 1, z: 0}
  m_Children:
  - {fileID: 903453894}
  - {fileID: 197466695}
  - {fileID: 1343717947}
  - {fileID: 1035776743}
  - {fileID: 817472447}
  - {fileID: 756972219}
  - {fileID: 1919571799}
  m_Father: {fileID: 1731829235}
  m_RootOrder: 2
  m_LocalEulerAnglesHint: {x: 0, y: 0, z: 0}
  m_AnchorMin: {x: 0, y: 0}
  m_AnchorMax: {x: 0, y: 0}
  m_AnchoredPosition: {x: 0, y: 0}
  m_SizeDelta: {x: 1, y: 0.5}
  m_Pivot: {x: 0.5, y: 0.5}
--- !u!1001 &1838162547
Prefab:
  m_ObjectHideFlags: 0
  serializedVersion: 2
  m_Modification:
    m_TransformParent: {fileID: 234904009}
    m_Modifications:
    - target: {fileID: 4261298723756716, guid: 29528ee004f08ee43824470a516967c6, type: 2}
      propertyPath: m_LocalPosition.x
      value: 0
      objectReference: {fileID: 0}
    - target: {fileID: 4261298723756716, guid: 29528ee004f08ee43824470a516967c6, type: 2}
      propertyPath: m_LocalPosition.y
      value: 0
      objectReference: {fileID: 0}
    - target: {fileID: 4261298723756716, guid: 29528ee004f08ee43824470a516967c6, type: 2}
      propertyPath: m_LocalPosition.z
      value: 0
      objectReference: {fileID: 0}
    - target: {fileID: 4261298723756716, guid: 29528ee004f08ee43824470a516967c6, type: 2}
      propertyPath: m_LocalRotation.x
      value: 0
      objectReference: {fileID: 0}
    - target: {fileID: 4261298723756716, guid: 29528ee004f08ee43824470a516967c6, type: 2}
      propertyPath: m_LocalRotation.y
      value: 0
      objectReference: {fileID: 0}
    - target: {fileID: 4261298723756716, guid: 29528ee004f08ee43824470a516967c6, type: 2}
      propertyPath: m_LocalRotation.z
      value: 0
      objectReference: {fileID: 0}
    - target: {fileID: 4261298723756716, guid: 29528ee004f08ee43824470a516967c6, type: 2}
      propertyPath: m_LocalRotation.w
      value: 1
      objectReference: {fileID: 0}
    - target: {fileID: 4261298723756716, guid: 29528ee004f08ee43824470a516967c6, type: 2}
      propertyPath: m_RootOrder
      value: 2
      objectReference: {fileID: 0}
    - target: {fileID: 1669709384502458, guid: 29528ee004f08ee43824470a516967c6, type: 2}
      propertyPath: m_Name
      value: Cursor (Head)
      objectReference: {fileID: 0}
    - target: {fileID: 23184961357788854, guid: 29528ee004f08ee43824470a516967c6,
        type: 2}
      propertyPath: m_Materials.Array.data[0]
      value: 
      objectReference: {fileID: 2100000, guid: d207ea31ff412af47a24a99033de0587, type: 2}
    - target: {fileID: 23184961357788854, guid: 29528ee004f08ee43824470a516967c6,
        type: 2}
      propertyPath: m_DynamicOccludee
      value: 1
      objectReference: {fileID: 0}
    - target: {fileID: 114929602643739110, guid: 29528ee004f08ee43824470a516967c6,
        type: 2}
      propertyPath: Raycast
      value: 
      objectReference: {fileID: 0}
    - target: {fileID: 114929602643739110, guid: 29528ee004f08ee43824470a516967c6,
        type: 2}
      propertyPath: _raycast
      value: 
      objectReference: {fileID: 1113660737}
    - target: {fileID: 114929602643739110, guid: 29528ee004f08ee43824470a516967c6,
        type: 2}
      propertyPath: _defaultDistance
      value: 9
      objectReference: {fileID: 0}
    m_RemovedComponents: []
  m_ParentPrefab: {fileID: 100100000, guid: 29528ee004f08ee43824470a516967c6, type: 2}
  m_RootGameObject: {fileID: 1941677877}
  m_IsPrefabParent: 0
--- !u!4 &1838162548
Transform:
  m_ObjectHideFlags: 0
  m_PrefabParentObject: {fileID: 4261298723756716, guid: 29528ee004f08ee43824470a516967c6,
    type: 2}
  m_PrefabInternal: {fileID: 1838162547}
  m_GameObject: {fileID: 1941677877}
  m_LocalRotation: {x: 0, y: 0, z: 0, w: 1}
  m_LocalPosition: {x: 0, y: 0, z: 0}
  m_LocalScale: {x: 1, y: 1, z: 1}
  m_Children: []
  m_Father: {fileID: 234904009}
  m_RootOrder: 2
  m_LocalEulerAnglesHint: {x: 0, y: 0, z: 0}
--- !u!1 &1919571798
GameObject:
  m_ObjectHideFlags: 0
  m_PrefabParentObject: {fileID: 0}
  m_PrefabInternal: {fileID: 0}
  serializedVersion: 5
  m_Component:
  - component: {fileID: 1919571799}
  - component: {fileID: 1919571801}
  - component: {fileID: 1919571800}
  m_Layer: 5
  m_Name: 'Text: Interaction Status'
  m_TagString: Untagged
  m_Icon: {fileID: 0}
  m_NavMeshLayer: 0
  m_StaticEditorFlags: 0
  m_IsActive: 1
--- !u!224 &1919571799
RectTransform:
  m_ObjectHideFlags: 0
  m_PrefabParentObject: {fileID: 0}
  m_PrefabInternal: {fileID: 0}
  m_GameObject: {fileID: 1919571798}
  m_LocalRotation: {x: -0, y: -0, z: -0, w: 1}
  m_LocalPosition: {x: 0, y: 0, z: 0}
  m_LocalScale: {x: 0.0015, y: 0.0015, z: 0}
  m_Children: []
  m_Father: {fileID: 1827102959}
  m_RootOrder: 6
  m_LocalEulerAnglesHint: {x: 0, y: 0, z: 0}
  m_AnchorMin: {x: 0.5, y: 0.5}
  m_AnchorMax: {x: 0.5, y: 0.5}
  m_AnchoredPosition: {x: -0.245, y: -0.072}
  m_SizeDelta: {x: 300, y: 21.5}
  m_Pivot: {x: 0.5, y: 0.5}
--- !u!114 &1919571800
MonoBehaviour:
  m_ObjectHideFlags: 0
  m_PrefabParentObject: {fileID: 0}
  m_PrefabInternal: {fileID: 0}
  m_GameObject: {fileID: 1919571798}
  m_Enabled: 1
  m_EditorHideFlags: 0
  m_Script: {fileID: 708705254, guid: f70555f144d8491a825f0804e09c671c, type: 3}
  m_Name: 
  m_EditorClassIdentifier: 
  m_Material: {fileID: 0}
  m_Color: {r: 1, g: 1, b: 1, a: 1}
  m_RaycastTarget: 1
  m_OnCullStateChanged:
    m_PersistentCalls:
      m_Calls: []
    m_TypeName: UnityEngine.UI.MaskableGraphic+CullStateChangedEvent, UnityEngine.UI,
      Version=1.0.0.0, Culture=neutral, PublicKeyToken=null
  m_FontData:
    m_Font: {fileID: 12800000, guid: adcae46baa3736748a69f9f489676bd7, type: 3}
    m_FontSize: 12
    m_FontStyle: 0
    m_BestFit: 0
    m_MinSize: 1
    m_MaxSize: 40
    m_Alignment: 0
    m_AlignByGeometry: 0
    m_RichText: 1
    m_HorizontalOverflow: 0
    m_VerticalOverflow: 0
    m_LineSpacing: 1
  m_Text: Interaction Status
--- !u!222 &1919571801
CanvasRenderer:
  m_ObjectHideFlags: 0
  m_PrefabParentObject: {fileID: 0}
  m_PrefabInternal: {fileID: 0}
  m_GameObject: {fileID: 1919571798}
--- !u!1 &1941677877
GameObject:
  m_ObjectHideFlags: 0
  m_PrefabParentObject: {fileID: 1669709384502458, guid: 29528ee004f08ee43824470a516967c6,
    type: 2}
  m_PrefabInternal: {fileID: 1838162547}
  serializedVersion: 5
  m_Component:
  - component: {fileID: 1838162548}
  - component: {fileID: 1941677880}
  - component: {fileID: 1941677879}
  - component: {fileID: 1941677878}
  m_Layer: 0
  m_Name: Cursor (Head)
  m_TagString: Untagged
  m_Icon: {fileID: 0}
  m_NavMeshLayer: 0
  m_StaticEditorFlags: 0
  m_IsActive: 1
--- !u!114 &1941677878
MonoBehaviour:
  m_ObjectHideFlags: 0
  m_PrefabParentObject: {fileID: 0}
  m_PrefabInternal: {fileID: 0}
  m_GameObject: {fileID: 1941677877}
  m_Enabled: 1
  m_EditorHideFlags: 0
  m_Script: {fileID: 11500000, guid: 916369d166781254e9f965f92ab8fc4e, type: 3}
  m_Name: 
  m_EditorClassIdentifier: 
  _raycast: {fileID: 1113660737}
  _defaultDistance: 9
  _scaleWhenClose: 1
--- !u!23 &1941677879
MeshRenderer:
  m_ObjectHideFlags: 0
  m_PrefabParentObject: {fileID: 23184961357788854, guid: 29528ee004f08ee43824470a516967c6,
    type: 2}
  m_PrefabInternal: {fileID: 1838162547}
  m_GameObject: {fileID: 1941677877}
  m_Enabled: 1
  m_CastShadows: 1
  m_ReceiveShadows: 1
  m_DynamicOccludee: 1
  m_MotionVectors: 1
  m_LightProbeUsage: 1
  m_ReflectionProbeUsage: 1
  m_RenderingLayerMask: 4294967295
  m_Materials:
  - {fileID: 2100000, guid: d207ea31ff412af47a24a99033de0587, type: 2}
  m_StaticBatchInfo:
    firstSubMesh: 0
    subMeshCount: 0
  m_StaticBatchRoot: {fileID: 0}
  m_ProbeAnchor: {fileID: 0}
  m_LightProbeVolumeOverride: {fileID: 0}
  m_ScaleInLightmap: 1
  m_PreserveUVs: 0
  m_IgnoreNormalsForChartDetection: 0
  m_ImportantGI: 0
  m_StitchLightmapSeams: 0
  m_SelectedEditorRenderState: 3
  m_MinimumChartSize: 4
  m_AutoUVMaxDistance: 0.5
  m_AutoUVMaxAngle: 89
  m_LightmapParameters: {fileID: 0}
  m_SortingLayerID: 0
  m_SortingLayer: 0
  m_SortingOrder: 0
--- !u!33 &1941677880
MeshFilter:
  m_ObjectHideFlags: 0
  m_PrefabParentObject: {fileID: 33288270378953486, guid: 29528ee004f08ee43824470a516967c6,
    type: 2}
  m_PrefabInternal: {fileID: 1838162547}
  m_GameObject: {fileID: 1941677877}
  m_Mesh: {fileID: 4300000, guid: 469d0d5dd3558804ca56a8d0fa774dae, type: 3}
--- !u!1 &2003907629
GameObject:
  m_ObjectHideFlags: 0
  m_PrefabParentObject: {fileID: 1584783810781172, guid: dcbf1437f0912414da095cb522586e5c,
    type: 2}
  m_PrefabInternal: {fileID: 0}
  serializedVersion: 5
  m_Component:
  - component: {fileID: 1827102959}
  - component: {fileID: 2003907634}
  - component: {fileID: 2003907633}
  - component: {fileID: 2003907632}
  - component: {fileID: 2003907631}
  - component: {fileID: 2003907630}
  m_Layer: 5
  m_Name: HeadposeCanvas
  m_TagString: Untagged
  m_Icon: {fileID: 0}
  m_NavMeshLayer: 0
  m_StaticEditorFlags: 0
  m_IsActive: 1
--- !u!222 &2003907630
CanvasRenderer:
  m_ObjectHideFlags: 0
  m_PrefabParentObject: {fileID: 222522199112088104, guid: dcbf1437f0912414da095cb522586e5c,
    type: 2}
  m_PrefabInternal: {fileID: 0}
  m_GameObject: {fileID: 2003907629}
--- !u!114 &2003907631
MonoBehaviour:
  m_ObjectHideFlags: 0
  m_PrefabParentObject: {fileID: 114228876250568364, guid: dcbf1437f0912414da095cb522586e5c,
    type: 2}
  m_PrefabInternal: {fileID: 0}
  m_GameObject: {fileID: 2003907629}
  m_Enabled: 1
  m_EditorHideFlags: 0
  m_Script: {fileID: 11500000, guid: 9a955ee40b78a2c489d4859b55f1f5e3, type: 3}
  m_Name: 
  m_EditorClassIdentifier: 
  CanvasDistance: 1.5
  PositionLerpSpeed: 1
  RotationLerpSpeed: 1
--- !u!114 &2003907632
MonoBehaviour:
  m_ObjectHideFlags: 0
  m_PrefabParentObject: {fileID: 114801980052307648, guid: dcbf1437f0912414da095cb522586e5c,
    type: 2}
  m_PrefabInternal: {fileID: 0}
  m_GameObject: {fileID: 2003907629}
  m_Enabled: 1
  m_EditorHideFlags: 0
  m_Script: {fileID: 1301386320, guid: f5f67c52d1564df4a8936ccd202a3bd8, type: 3}
  m_Name: 
  m_EditorClassIdentifier: 
  m_IgnoreReversedGraphics: 1
  m_BlockingObjects: 0
  m_BlockingMask:
    serializedVersion: 2
    m_Bits: 4294967295
--- !u!114 &2003907633
MonoBehaviour:
  m_ObjectHideFlags: 0
  m_PrefabParentObject: {fileID: 114919713958074922, guid: dcbf1437f0912414da095cb522586e5c,
    type: 2}
  m_PrefabInternal: {fileID: 0}
  m_GameObject: {fileID: 2003907629}
  m_Enabled: 1
  m_EditorHideFlags: 0
  m_Script: {fileID: 1980459831, guid: f5f67c52d1564df4a8936ccd202a3bd8, type: 3}
  m_Name: 
  m_EditorClassIdentifier: 
  m_UiScaleMode: 0
  m_ReferencePixelsPerUnit: 100
  m_ScaleFactor: 1
  m_ReferenceResolution: {x: 800, y: 600}
  m_ScreenMatchMode: 0
  m_MatchWidthOrHeight: 0
  m_PhysicalUnit: 3
  m_FallbackScreenDPI: 96
  m_DefaultSpriteDPI: 96
  m_DynamicPixelsPerUnit: 2
--- !u!223 &2003907634
Canvas:
  m_ObjectHideFlags: 0
  m_PrefabParentObject: {fileID: 223623966958214270, guid: dcbf1437f0912414da095cb522586e5c,
    type: 2}
  m_PrefabInternal: {fileID: 0}
  m_GameObject: {fileID: 2003907629}
  m_Enabled: 1
  serializedVersion: 3
  m_RenderMode: 2
  m_Camera: {fileID: 1532296888}
  m_PlaneDistance: 100
  m_PixelPerfect: 0
  m_ReceivesEvents: 1
  m_OverrideSorting: 0
  m_OverridePixelPerfect: 0
  m_SortingBucketNormalizedSize: 0
  m_AdditionalShaderChannelsFlag: 0
  m_SortingLayerID: 0
  m_SortingOrder: 0
  m_TargetDisplay: 0
--- !u!1 &2013718545
GameObject:
  m_ObjectHideFlags: 0
  m_PrefabParentObject: {fileID: 1251553225145992, guid: 869fbdf6b6425694eb465928f60e4646,
    type: 2}
  m_PrefabInternal: {fileID: 4155952}
  serializedVersion: 5
  m_Component:
  - component: {fileID: 2013718546}
  - component: {fileID: 2013718548}
  - component: {fileID: 2013718547}
  m_Layer: 0
  m_Name: X_Sphere3
  m_TagString: Untagged
  m_Icon: {fileID: 0}
  m_NavMeshLayer: 0
  m_StaticEditorFlags: 0
  m_IsActive: 1
--- !u!4 &2013718546
Transform:
  m_ObjectHideFlags: 0
  m_PrefabParentObject: {fileID: 4889092357896066, guid: 869fbdf6b6425694eb465928f60e4646,
    type: 2}
  m_PrefabInternal: {fileID: 4155952}
  m_GameObject: {fileID: 2013718545}
  m_LocalRotation: {x: 0, y: -0, z: -0, w: 1}
  m_LocalPosition: {x: -0.0999721, y: 0, z: 0}
  m_LocalScale: {x: 0.23608658, y: 0.23608658, z: 0.23608658}
  m_Children: []
  m_Father: {fileID: 1299423420}
  m_RootOrder: 5
  m_LocalEulerAnglesHint: {x: 0, y: 0, z: 0}
--- !u!23 &2013718547
MeshRenderer:
  m_ObjectHideFlags: 0
  m_PrefabParentObject: {fileID: 23205631837455500, guid: 869fbdf6b6425694eb465928f60e4646,
    type: 2}
  m_PrefabInternal: {fileID: 4155952}
  m_GameObject: {fileID: 2013718545}
  m_Enabled: 1
  m_CastShadows: 1
  m_ReceiveShadows: 1
  m_DynamicOccludee: 1
  m_MotionVectors: 1
  m_LightProbeUsage: 1
  m_ReflectionProbeUsage: 1
  m_RenderingLayerMask: 4294967295
  m_Materials:
  - {fileID: 2100000, guid: 5808511577e4da7488e7fc2fcfb7d238, type: 2}
  m_StaticBatchInfo:
    firstSubMesh: 0
    subMeshCount: 0
  m_StaticBatchRoot: {fileID: 0}
  m_ProbeAnchor: {fileID: 0}
  m_LightProbeVolumeOverride: {fileID: 0}
  m_ScaleInLightmap: 1
  m_PreserveUVs: 0
  m_IgnoreNormalsForChartDetection: 0
  m_ImportantGI: 0
  m_StitchLightmapSeams: 0
  m_SelectedEditorRenderState: 3
  m_MinimumChartSize: 4
  m_AutoUVMaxDistance: 0.5
  m_AutoUVMaxAngle: 89
  m_LightmapParameters: {fileID: 0}
  m_SortingLayerID: 0
  m_SortingLayer: 0
  m_SortingOrder: 0
--- !u!33 &2013718548
MeshFilter:
  m_ObjectHideFlags: 0
  m_PrefabParentObject: {fileID: 33834251228241242, guid: 869fbdf6b6425694eb465928f60e4646,
    type: 2}
  m_PrefabInternal: {fileID: 4155952}
  m_GameObject: {fileID: 2013718545}
  m_Mesh: {fileID: 4300028, guid: 19e8f0334d30adc46be9a93a73b14e80, type: 3}
--- !u!1 &2077444753
GameObject:
  m_ObjectHideFlags: 0
  m_PrefabParentObject: {fileID: 1047599269791938, guid: 869fbdf6b6425694eb465928f60e4646,
    type: 2}
  m_PrefabInternal: {fileID: 4155952}
  serializedVersion: 5
  m_Component:
  - component: {fileID: 2077444754}
  - component: {fileID: 2077444756}
  - component: {fileID: 2077444755}
  m_Layer: 0
  m_Name: Z_Sphere1
  m_TagString: Untagged
  m_Icon: {fileID: 0}
  m_NavMeshLayer: 0
  m_StaticEditorFlags: 0
  m_IsActive: 1
--- !u!4 &2077444754
Transform:
  m_ObjectHideFlags: 0
  m_PrefabParentObject: {fileID: 4163061223270500, guid: 869fbdf6b6425694eb465928f60e4646,
    type: 2}
  m_PrefabInternal: {fileID: 4155952}
  m_GameObject: {fileID: 2077444753}
  m_LocalRotation: {x: 0, y: -0, z: -0, w: 1}
  m_LocalPosition: {x: -0, y: 0, z: 0.099999905}
  m_LocalScale: {x: 0.23608646, y: 0.23608646, z: 0.23608646}
  m_Children: []
  m_Father: {fileID: 1299423420}
  m_RootOrder: 13
  m_LocalEulerAnglesHint: {x: 0, y: 0, z: 0}
--- !u!23 &2077444755
MeshRenderer:
  m_ObjectHideFlags: 0
  m_PrefabParentObject: {fileID: 23464034357184250, guid: 869fbdf6b6425694eb465928f60e4646,
    type: 2}
  m_PrefabInternal: {fileID: 4155952}
  m_GameObject: {fileID: 2077444753}
  m_Enabled: 1
  m_CastShadows: 1
  m_ReceiveShadows: 1
  m_DynamicOccludee: 1
  m_MotionVectors: 1
  m_LightProbeUsage: 1
  m_ReflectionProbeUsage: 1
  m_RenderingLayerMask: 4294967295
  m_Materials:
  - {fileID: 2100000, guid: dce284ccd24f4ae4ab1bd9256da4a4bd, type: 2}
  m_StaticBatchInfo:
    firstSubMesh: 0
    subMeshCount: 0
  m_StaticBatchRoot: {fileID: 0}
  m_ProbeAnchor: {fileID: 0}
  m_LightProbeVolumeOverride: {fileID: 0}
  m_ScaleInLightmap: 1
  m_PreserveUVs: 0
  m_IgnoreNormalsForChartDetection: 0
  m_ImportantGI: 0
  m_StitchLightmapSeams: 0
  m_SelectedEditorRenderState: 3
  m_MinimumChartSize: 4
  m_AutoUVMaxDistance: 0.5
  m_AutoUVMaxAngle: 89
  m_LightmapParameters: {fileID: 0}
  m_SortingLayerID: 0
  m_SortingLayer: 0
  m_SortingOrder: 0
--- !u!33 &2077444756
MeshFilter:
  m_ObjectHideFlags: 0
  m_PrefabParentObject: {fileID: 33520168849813376, guid: 869fbdf6b6425694eb465928f60e4646,
    type: 2}
  m_PrefabInternal: {fileID: 4155952}
  m_GameObject: {fileID: 2077444753}
  m_Mesh: {fileID: 4300008, guid: 19e8f0334d30adc46be9a93a73b14e80, type: 3}
--- !u!1 &2146824468
GameObject:
  m_ObjectHideFlags: 0
  m_PrefabParentObject: {fileID: 1673013878952220, guid: 869fbdf6b6425694eb465928f60e4646,
    type: 2}
  m_PrefabInternal: {fileID: 4155952}
  serializedVersion: 5
  m_Component:
  - component: {fileID: 2146824469}
  - component: {fileID: 2146824471}
  - component: {fileID: 2146824470}
  m_Layer: 0
  m_Name: X_Sphere
  m_TagString: Untagged
  m_Icon: {fileID: 0}
  m_NavMeshLayer: 0
  m_StaticEditorFlags: 0
  m_IsActive: 1
--- !u!4 &2146824469
Transform:
  m_ObjectHideFlags: 0
  m_PrefabParentObject: {fileID: 4528593736339542, guid: 869fbdf6b6425694eb465928f60e4646,
    type: 2}
  m_PrefabInternal: {fileID: 4155952}
  m_GameObject: {fileID: 2146824468}
  m_LocalRotation: {x: 0, y: -0, z: -0, w: 1}
  m_LocalPosition: {x: -0.100000076, y: 0, z: 0}
  m_LocalScale: {x: 0.2360864, y: 0.2360864, z: 0.2360864}
  m_Children: []
  m_Father: {fileID: 1299423420}
  m_RootOrder: 2
  m_LocalEulerAnglesHint: {x: 0, y: 0, z: 0}
--- !u!23 &2146824470
MeshRenderer:
  m_ObjectHideFlags: 0
  m_PrefabParentObject: {fileID: 23586121705792076, guid: 869fbdf6b6425694eb465928f60e4646,
    type: 2}
  m_PrefabInternal: {fileID: 4155952}
  m_GameObject: {fileID: 2146824468}
  m_Enabled: 1
  m_CastShadows: 1
  m_ReceiveShadows: 1
  m_DynamicOccludee: 1
  m_MotionVectors: 1
  m_LightProbeUsage: 1
  m_ReflectionProbeUsage: 1
  m_RenderingLayerMask: 4294967295
  m_Materials:
  - {fileID: 2100000, guid: 5808511577e4da7488e7fc2fcfb7d238, type: 2}
  m_StaticBatchInfo:
    firstSubMesh: 0
    subMeshCount: 0
  m_StaticBatchRoot: {fileID: 0}
  m_ProbeAnchor: {fileID: 0}
  m_LightProbeVolumeOverride: {fileID: 0}
  m_ScaleInLightmap: 1
  m_PreserveUVs: 0
  m_IgnoreNormalsForChartDetection: 0
  m_ImportantGI: 0
  m_StitchLightmapSeams: 0
  m_SelectedEditorRenderState: 3
  m_MinimumChartSize: 4
  m_AutoUVMaxDistance: 0.5
  m_AutoUVMaxAngle: 89
  m_LightmapParameters: {fileID: 0}
  m_SortingLayerID: 0
  m_SortingLayer: 0
  m_SortingOrder: 0
--- !u!33 &2146824471
MeshFilter:
  m_ObjectHideFlags: 0
  m_PrefabParentObject: {fileID: 33887825899898114, guid: 869fbdf6b6425694eb465928f60e4646,
    type: 2}
  m_PrefabInternal: {fileID: 4155952}
  m_GameObject: {fileID: 2146824468}
  m_Mesh: {fileID: 4300006, guid: 19e8f0334d30adc46be9a93a73b14e80, type: 3}
